Date;Subject's Number;Gender;Age;Trial Number;Spawn Method;Salient Side;Button Colour;Hand Used;Wrong Start Detected;Wrong Hand Used;Reaction Time Too Fast;Reaction Time Too Slow;Shape Spawn Delay;Stimulus Delay;Stimuli Start Time;Button Press Time;Reaction Time;
2017.04.27-11.35.33;8;VE_Male;30;1;VE_OneSector;2;0;Left;0;0;0;0;0.726386;0.690036;315.105377;315.865204;0.759827;
2017.04.27-11.35.35;8;VE_Male;30;2;VE_OneSector;1;1;Right;0;0;0;0;0.875549;0.616163;317.864807;318.468445;0.603638;
2017.04.27-11.35.38;8;VE_Male;30;3;VE_OneSector;1;0;Left;1;0;0;0;0.834037;0.78526;320.601593;321.339172;0.737579;
2017.04.27-11.35.41;8;VE_Male;30;4;VE_OneSector;2;1;Right;0;0;0;0;0.8356;0.674746;323.36264;324.053467;0.690826;
2017.04.27-11.35.43;8;VE_Male;30;5;VE_OneSector;1;1;Right;0;0;0;0;0.739808;0.684939;325.986115;326.701294;0.715179;
2017.04.27-11.35.46;8;VE_Male;30;6;VE_OneSector;1;1;Right;0;0;0;0;0.727851;0.651485;328.566681;329.236298;0.669617;
2017.04.27-11.35.49;8;VE_Male;30;7;VE_OneSector;2;0;Left;0;0;0;0;0.7644;0.6519;331.191803;331.928314;0.736511;
2017.04.27-11.35.51;8;VE_Male;30;8;VE_OneSector;2;1;Right;0;0;0;0;0.706702;0.637544;333.826721;334.475067;0.648346;
2017.04.27-11.35.54;8;VE_Male;30;9;VE_OneSector;2;1;Right;0;0;0;0;0.84221;0.722227;336.553162;337.356537;0.803375;
2017.04.27-11.35.57;8;VE_Male;30;10;VE_OneSector;2;1;Right;0;0;0;0;0.735951;0.658663;339.18869;339.92572;0.73703;
2017.04.27-11.35.59;8;VE_Male;30;11;VE_OneSector;1;0;Left;0;0;0;0;0.768966;0.734159;341.96051;342.628754;0.668243;
2017.04.27-11.36.02;8;VE_Male;30;12;VE_OneSector;1;1;Right;0;0;0;0;0.848949;0.616578;344.640625;345.28772;0.647095;
2017.04.27-11.36.05;8;VE_Male;30;13;VE_OneSector;2;1;Right;0;0;0;0;0.874432;0.782043;347.477661;348.147095;0.669434;
2017.04.27-11.36.08;8;VE_Male;30;14;VE_OneSector;1;0;Left;0;0;0;0;0.833757;0.65544;350.146881;350.906891;0.76001;
2017.04.27-11.36.10;8;VE_Male;30;15;VE_OneSector;2;0;Left;0;0;0;0;0.720014;0.695187;352.84964;353.634186;0.784546;
2017.04.27-11.36.13;8;VE_Male;30;16;VE_OneSector;1;0;Left;0;0;0;0;0.743312;0.753227;355.675568;356.458221;0.782654;
2017.04.27-11.36.16;8;VE_Male;30;17;VE_OneSector;2;0;Left;0;0;0;0;0.82147;0.741807;358.569519;359.373077;0.803558;
2017.04.27-11.36.19;8;VE_Male;30;18;VE_OneSector;2;0;Left;1;0;0;0;0.830576;0.738102;361.428192;362.254852;0.82666;
2017.04.27-11.36.22;8;VE_Male;30;19;VE_OneSector;2;1;Right;0;0;0;0;0.796499;0.757921;364.354401;365.091553;0.737152;
2017.04.27-11.36.24;8;VE_Male;30;20;VE_OneSector;2;1;Right;0;0;0;0;0.708686;0.729887;367.069214;367.894867;0.825653;
2017.04.27-11.36.27;8;VE_Male;30;21;VE_OneSector;2;1;Right;0;0;0;0;0.737458;0.701224;369.861481;370.665588;0.804108;
2017.04.27-11.36.30;8;VE_Male;30;22;VE_OneSector;1;1;Right;0;0;0;0;0.736116;0.606415;372.542542;373.302612;0.760071;
2017.04.27-11.36.33;8;VE_Male;30;23;VE_OneSector;1;1;Right;0;0;0;0;0.808988;0.630049;375.278931;375.971863;0.692932;
2017.04.27-11.36.35;8;VE_Male;30;24;VE_OneSector;2;1;Right;0;0;0;0;0.826835;0.694986;378.004272;378.696625;0.692352;
2017.04.27-11.36.38;8;VE_Male;30;25;VE_OneSector;2;1;Right;0;0;0;0;0.870678;0.707236;380.8302;381.478638;0.648438;
2017.04.27-11.36.41;8;VE_Male;30;26;VE_OneSector;1;1;Right;0;0;0;0;0.885461;0.688705;383.58963;384.30481;0.715179;
2017.04.27-11.36.44;8;VE_Male;30;27;VE_OneSector;2;1;Right;0;0;0;0;0.724696;0.629041;386.192047;386.951508;0.75946;
2017.04.27-11.36.46;8;VE_Male;30;28;VE_OneSector;2;1;Right;0;0;0;0;0.867412;0.787957;389.152496;389.79895;0.646454;
2017.04.27-11.36.49;8;VE_Male;30;29;VE_OneSector;2;1;Right;0;0;0;0;0.788522;0.679067;391.821838;392.491577;0.669739;
2017.04.27-11.36.52;8;VE_Male;30;30;VE_OneSector;1;0;Left;0;0;0;0;0.864086;0.666768;394.580048;395.340454;0.760406;
2017.04.27-11.36.55;8;VE_Male;30;31;VE_OneSector;1;1;Right;0;0;0;0;0.792495;0.607129;397.316742;398.054779;0.738037;
2017.04.27-11.36.58;8;VE_Male;30;32;VE_OneSector;1;1;Right;0;0;0;0;0.812973;0.664248;400.120575;400.859039;0.738464;
2017.04.27-11.37.00;8;VE_Male;30;33;VE_OneSector;1;0;Left;1;0;0;0;0.702551;0.733207;402.81308;403.617065;0.803986;
2017.04.27-11.37.03;8;VE_Male;30;34;VE_OneSector;2;1;Right;0;0;0;0;0.832865;0.600952;405.638916;406.41983;0.780914;
2017.04.27-11.37.06;8;VE_Male;30;35;VE_OneSector;1;1;Right;0;0;0;0;0.86787;0.676302;408.553223;409.268127;0.714905;
2017.04.27-11.37.09;8;VE_Male;30;36;VE_OneSector;1;0;Left;0;0;0;0;0.783956;0.620331;411.234558;412.016846;0.782288;
2017.04.27-11.37.11;8;VE_Male;30;37;VE_OneSector;1;1;Right;0;0;0;0;0.793478;0.708402;414.049377;414.764618;0.71524;
2017.04.27-11.37.14;8;VE_Male;30;38;VE_OneSector;2;0;Left;0;0;0;0;0.853056;0.655098;416.875946;417.546814;0.670868;
2017.04.27-11.37.17;8;VE_Male;30;39;VE_OneSector;1;1;Right;0;0;0;0;0.737965;0.733323;419.589966;420.283142;0.693176;
2017.04.27-11.37.20;8;VE_Male;30;40;VE_OneSector;2;0;Left;1;0;0;0;0.763698;0.71868;422.348663;423.176056;0.827393;
2017.04.27-11.37.23;8;VE_Male;30;41;VE_OneSector;1;0;Left;0;0;0;0;0.736116;0.690664;425.152679;426.113037;0.960358;
2017.04.27-11.37.26;8;VE_Male;30;42;VE_OneSector;2;0;Left;0;0;0;0;0.811319;0.621577;428.123627;428.973267;0.84964;
2017.04.27-11.37.28;8;VE_Male;30;43;VE_OneSector;1;1;Right;0;0;0;0;0.846562;0.784704;431.150116;431.798462;0.648346;
2017.04.27-11.37.31;8;VE_Male;30;44;VE_OneSector;1;0;Left;0;0;0;0;0.723414;0.712803;433.820953;434.591309;0.770355;
2017.04.27-11.37.34;8;VE_Male;30;45;VE_OneSector;1;0;Left;1;0;0;0;0.824448;0.738285;436.768768;437.573792;0.805023;
2017.04.27-11.37.37;8;VE_Male;30;46;VE_OneSector;2;0;Left;0;0;0;0;0.744691;0.646266;439.561127;440.410004;0.848877;
2017.04.27-11.37.40;8;VE_Male;30;47;VE_OneSector;2;1;Right;0;0;0;0;0.819083;0.671743;442.52063;443.325104;0.804474;
2017.04.27-11.37.43;8;VE_Male;30;48;VE_OneSector;1;0;Left;0;0;0;0;0.747218;0.772204;445.414917;446.128815;0.713898;
2017.04.27-11.37.46;8;VE_Male;30;49;VE_OneSector;2;1;Right;0;0;0;0;0.896594;0.606806;448.229736;448.855042;0.625305;
2017.04.27-11.37.48;8;VE_Male;30;50;VE_OneSector;1;1;Right;0;0;0;0;0.765603;0.753557;450.998688;451.646942;0.648254;
2017.04.27-11.37.51;8;VE_Male;30;51;VE_OneSector;2;1;Right;0;0;0;0;0.787588;0.795502;453.824493;454.517578;0.693085;
2017.04.27-11.37.54;8;VE_Male;30;52;VE_OneSector;1;0;Left;0;0;0;0;0.757118;0.607404;456.494324;457.343536;0.849213;
2017.04.27-11.37.57;8;VE_Male;30;53;VE_OneSector;2;0;Left;0;0;0;0;0.859807;0.67405;459.521545;460.437866;0.916321;
2017.04.27-11.38.00;8;VE_Male;30;54;VE_OneSector;1;0;Left;0;0;0;0;0.78688;0.771368;462.683685;463.509277;0.825592;
2017.04.27-11.38.03;8;VE_Male;30;55;VE_OneSector;1;1;Right;0;0;0;0;0.715778;0.641792;465.520264;466.279663;0.759399;
2017.04.27-11.38.06;8;VE_Male;30;56;VE_OneSector;1;1;Right;0;0;0;0;0.838005;0.794971;468.546753;469.216858;0.670105;
2017.04.27-11.38.09;8;VE_Male;30;57;VE_OneSector;2;1;Right;0;0;0;0;0.815488;0.665084;471.260742;472.042572;0.78183;
2017.04.27-11.38.12;8;VE_Male;30;58;VE_OneSector;2;1;Right;0;0;0;0;0.846745;0.656117;474.109314;474.801758;0.692444;
2017.04.27-11.38.14;8;VE_Male;30;59;VE_OneSector;1;0;Left;0;0;0;0;0.724;0.706204;476.790466;477.594421;0.803955;
2017.04.27-11.38.17;8;VE_Male;30;60;VE_OneSector;2;1;Right;0;0;0;0;0.762661;0.702445;479.728302;480.398041;0.669739;
2017.04.27-11.38.30;8;VE_Male;30;61;VE_OneSector;2;0;Left;0;0;0;0;0.78417;0.777264;492.517212;493.276489;0.759277;
2017.04.27-11.38.33;8;VE_Male;30;62;VE_OneSector;1;0;Left;0;0;0;0;0.833787;0.61775;495.354218;496.158875;0.804657;
2017.04.27-11.38.36;8;VE_Male;30;63;VE_OneSector;1;0;Left;0;0;0;0;0.814243;0.619092;498.202118;499.050781;0.848663;
2017.04.27-11.38.39;8;VE_Male;30;64;VE_OneSector;1;0;Left;0;0;0;0;0.716761;0.613404;501.051575;501.87738;0.825806;
2017.04.27-11.38.41;8;VE_Male;30;65;VE_OneSector;2;0;Left;0;0;0;0;0.83054;0.605188;503.888092;504.691925;0.803833;
2017.04.27-11.38.44;8;VE_Male;30;66;VE_OneSector;1;0;Left;0;0;0;0;0.812009;0.644734;506.780975;507.54071;0.759735;
2017.04.27-11.38.47;8;VE_Male;30;67;VE_OneSector;1;1;Right;0;0;0;0;0.795114;0.670583;509.540497;510.210693;0.670197;
2017.04.27-11.38.50;8;VE_Male;30;68;VE_OneSector;2;0;Left;0;0;0;0;0.823875;0.652449;512.321655;513.080383;0.758728;
2017.04.27-11.38.53;8;VE_Male;30;69;VE_OneSector;1;1;Right;0;0;0;0;0.788406;0.665749;515.169678;515.839539;0.669861;
2017.04.27-11.38.55;8;VE_Male;30;70;VE_OneSector;2;1;Right;0;0;0;0;0.745796;0.629035;517.838989;518.57666;0.737671;
2017.04.27-11.38.58;8;VE_Male;30;71;VE_OneSector;1;1;Right;0;0;0;0;0.806894;0.735545;520.676819;521.323975;0.647156;
2017.04.27-11.39.01;8;VE_Male;30;72;VE_OneSector;2;0;Left;0;0;0;0;0.870458;0.710178;523.468445;524.183594;0.715149;
2017.04.27-11.39.04;8;VE_Male;30;73;VE_OneSector;2;0;Left;0;0;0;0;0.785745;0.723075;526.361755;527.165833;0.804077;
2017.04.27-11.39.07;8;VE_Male;30;74;VE_OneSector;2;0;Left;0;0;0;0;0.824924;0.69114;529.333374;530.204895;0.871521;
2017.04.27-11.39.10;8;VE_Male;30;75;VE_OneSector;2;1;Right;0;0;0;0;0.846483;0.798639;532.47229;533.231262;0.758972;
2017.04.27-11.39.13;8;VE_Male;30;76;VE_OneSector;2;0;Left;0;0;0;0;0.830851;0.768212;535.465393;536.314575;0.849182;
2017.04.27-11.39.16;8;VE_Male;30;77;VE_OneSector;1;1;Right;0;0;0;0;0.769637;0.713584;538.413635;539.151306;0.737671;
2017.04.27-11.39.19;8;VE_Male;30;78;VE_OneSector;2;1;Right;0;0;0;0;0.789566;0.705063;541.262756;542.155396;0.892639;
2017.04.27-11.39.22;8;VE_Male;30;79;VE_OneSector;2;1;Right;0;0;0;0;0.892425;0.679269;544.333679;545.093811;0.760132;
2017.04.27-11.39.25;8;VE_Male;30;80;VE_OneSector;2;1;Right;0;0;0;0;0.792294;0.624189;547.092834;547.828979;0.736145;
2017.04.27-11.39.27;8;VE_Male;30;81;VE_OneSector;1;0;Left;1;0;0;0;0.831346;0.670937;549.940613;550.767029;0.826416;
2017.04.27-11.39.30;8;VE_Male;30;82;VE_OneSector;1;0;Left;0;0;0;0;0.855278;0.623316;552.855408;553.683167;0.827759;
2017.04.27-11.39.33;8;VE_Male;30;83;VE_OneSector;2;1;Right;0;0;0;0;0.829905;0.756627;555.882446;556.575012;0.692566;
2017.04.27-11.39.36;8;VE_Male;30;84;VE_OneSector;1;0;Left;1;0;0;0;0.879925;0.616773;558.718872;559.56897;0.850098;
2017.04.27-11.39.39;8;VE_Male;30;85;VE_OneSector;1;0;Left;0;0;0;0;0.731233;0.651076;561.591064;562.416382;0.825317;
2017.04.27-11.39.42;8;VE_Male;30;86;VE_OneSector;2;0;Left;0;0;0;0;0.837999;0.601935;564.473755;565.276428;0.802673;
2017.04.27-11.39.45;8;VE_Male;30;87;VE_OneSector;2;1;Right;0;0;0;0;0.775753;0.694656;567.409729;568.214539;0.80481;
2017.04.27-11.39.48;8;VE_Male;30;88;VE_OneSector;1;0;Left;0;0;0;0;0.781747;0.750627;570.348267;571.152161;0.803894;
2017.04.27-11.39.51;8;VE_Male;30;89;VE_OneSector;2;0;Left;0;0;0;0;0.823832;0.657216;573.318298;574.14502;0.826721;
2017.04.27-11.39.54;8;VE_Male;30;90;VE_OneSector;2;1;Right;0;0;0;0;0.879083;0.725486;576.346252;577.127686;0.781433;
2017.04.27-11.39.57;8;VE_Male;30;91;VE_OneSector;1;0;Left;0;0;0;0;0.803439;0.767064;579.327515;580.087219;0.759705;
2017.04.27-11.40.00;8;VE_Male;30;92;VE_OneSector;1;1;Right;0;0;0;0;0.873687;0.62143;582.231873;582.925659;0.693787;
2017.04.27-11.40.02;8;VE_Male;30;93;VE_OneSector;1;0;Left;0;0;0;0;0.782809;0.764818;585.102417;585.84021;0.737793;
2017.04.27-11.40.05;8;VE_Male;30;94;VE_OneSector;2;0;Left;0;0;0;0;0.770241;0.732023;587.973267;588.755371;0.782104;
2017.04.27-11.40.08;8;VE_Male;30;95;VE_OneSector;1;0;Left;0;0;0;0;0.868078;0.782336;591.035034;591.816101;0.781067;
2017.04.27-11.40.11;8;VE_Male;30;96;VE_OneSector;2;1;Right;0;0;0;0;0.744527;0.740892;593.883301;594.642517;0.759216;
2017.04.27-11.40.14;8;VE_Male;30;97;VE_OneSector;2;0;Left;1;0;0;0;0.725959;0.646614;596.630249;597.546082;0.915833;
2017.04.27-11.40.17;8;VE_Male;30;98;VE_OneSector;2;0;Left;0;0;0;0;0.878613;0.738133;599.835999;600.77417;0.938171;
2017.04.27-11.40.20;8;VE_Male;30;99;VE_OneSector;1;1;Right;0;0;0;0;0.731404;0.60871;602.796082;603.57782;0.781738;
2017.04.27-11.40.23;8;VE_Male;30;100;VE_OneSector;1;1;Right;0;0;0;0;0.720972;0.661715;605.62262;606.40564;0.78302;
2017.04.27-11.40.26;8;VE_Male;30;101;VE_OneSector;2;1;Right;0;0;0;0;0.740229;0.697617;608.426086;609.207886;0.781799;
2017.04.27-11.40.29;8;VE_Male;30;102;VE_OneSector;2;1;Right;0;0;0;0;0.871697;0.763915;611.509033;612.313721;0.804688;
2017.04.27-11.40.32;8;VE_Male;30;103;VE_OneSector;2;0;Left;0;0;0;0;0.886816;0.699197;614.448181;615.317505;0.869324;
2017.04.27-11.40.35;8;VE_Male;30;104;VE_OneSector;2;0;Left;1;0;0;0;0.792599;0.702652;617.496582;618.457458;0.960876;
2017.04.27-11.40.38;8;VE_Male;30;105;VE_OneSector;1;0;Left;0;0;0;0;0.806711;0.760088;620.690552;621.583984;0.893433;
2017.04.27-11.40.41;8;VE_Male;30;106;VE_OneSector;2;1;Right;0;0;0;0;0.842399;0.657973;623.706482;624.421387;0.714905;
2017.04.27-11.40.44;8;VE_Male;30;107;VE_OneSector;2;1;Right;0;0;0;0;0.884344;0.616572;626.56604;627.348999;0.782959;
2017.04.27-11.40.47;8;VE_Male;30;108;VE_OneSector;2;1;Right;0;0;0;0;0.736872;0.673428;629.336487;630.140747;0.80426;
2017.04.27-11.40.50;8;VE_Male;30;109;VE_OneSector;1;0;Left;0;0;0;0;0.725623;0.648549;632.084473;632.955688;0.871216;
2017.04.27-11.40.53;8;VE_Male;30;110;VE_OneSector;2;1;Right;0;0;0;0;0.834013;0.622456;635.0448;635.781799;0.737;
2017.04.27-11.40.55;8;VE_Male;30;111;VE_OneSector;2;0;Left;0;0;0;0;0.855657;0.758379;638.039001;638.776245;0.737244;
2017.04.27-11.40.58;8;VE_Male;30;112;VE_OneSector;2;0;Left;0;0;0;0;0.844163;0.799829;641.054871;641.880249;0.825378;
2017.04.27-11.41.01;8;VE_Male;30;113;VE_OneSector;1;1;Right;0;0;0;0;0.841343;0.674813;644.02594;644.762756;0.736816;
2017.04.27-11.41.04;8;VE_Male;30;114;VE_OneSector;1;0;Left;0;0;0;0;0.765212;0.738005;646.908081;647.734192;0.826111;
2017.04.27-11.41.07;8;VE_Male;30;115;VE_OneSector;2;0;Left;0;0;0;0;0.839073;0.681918;649.846191;650.716675;0.870483;
2017.04.27-11.41.10;8;VE_Male;30;116;VE_OneSector;1;0;Left;0;0;0;0;0.842723;0.648604;652.817017;653.643066;0.82605;
2017.04.27-11.41.13;8;VE_Male;30;117;VE_OneSector;1;1;Right;0;0;0;0;0.76736;0.772942;655.765381;656.479187;0.713806;
2017.04.27-11.41.16;8;VE_Male;30;118;VE_OneSector;1;0;Left;0;0;0;0;0.755086;0.688772;658.545776;659.372498;0.826721;
2017.04.27-11.41.19;8;VE_Male;30;119;VE_OneSector;2;1;Right;0;0;0;0;0.704529;0.629255;661.349854;662.154114;0.80426;
2017.04.27-11.41.22;8;VE_Male;30;120;VE_OneSector;1;0;Left;0;0;0;0;0.823698;0.652577;664.254211;665.035767;0.781555;
2017.04.27-11.41.34;8;VE_Male;30;121;VE_OneSector;1;0;Left;0;0;0;0;0.711335;0.624256;676.988098;677.770264;0.782166;
2017.04.27-11.41.37;8;VE_Male;30;122;VE_OneSector;2;1;Right;0;0;0;0;0.848094;0.687442;680.004211;680.786438;0.782227;
2017.04.27-11.41.40;8;VE_Male;30;123;VE_OneSector;1;1;Right;0;0;0;0;0.878637;0.652242;682.975769;683.824585;0.848816;
2017.04.27-11.41.43;8;VE_Male;30;124;VE_OneSector;2;0;Left;0;0;0;0;0.766115;0.635536;685.902283;686.684326;0.782043;
2017.04.27-11.41.46;8;VE_Male;30;125;VE_OneSector;2;1;Right;0;0;0;0;0.800052;0.78236;688.874023;689.610657;0.736633;
2017.04.27-11.41.49;8;VE_Male;30;126;VE_OneSector;1;0;Left;1;0;0;0;0.739076;0.600201;691.564819;692.503662;0.938843;
2017.04.27-11.41.52;8;VE_Male;30;127;VE_OneSector;1;1;Right;0;0;0;0;0.869622;0.73748;694.75885;695.451721;0.692871;
2017.04.27-11.41.55;8;VE_Male;30;128;VE_OneSector;1;1;Right;0;0;0;0;0.861907;0.737327;697.674927;698.523132;0.848206;
2017.04.27-11.41.58;8;VE_Male;30;129;VE_OneSector;2;0;Left;0;0;0;0;0.80444;0.798114;700.722839;701.617188;0.894348;
2017.04.27-11.42.01;8;VE_Male;30;130;VE_OneSector;2;1;Right;0;0;0;0;0.898297;0.671767;703.840515;704.666626;0.826111;
2017.04.27-11.42.04;8;VE_Male;30;131;VE_OneSector;2;1;Right;0;0;0;0;0.792355;0.731321;706.878296;707.661377;0.783081;
2017.04.27-11.42.07;8;VE_Male;30;132;VE_OneSector;1;0;Left;0;0;0;0;0.84088;0.738768;709.906189;710.754517;0.848328;
2017.04.27-11.42.10;8;VE_Male;30;133;VE_OneSector;1;0;Left;1;0;0;0;0.864574;0.744627;713.044006;714.116089;1.072083;
2017.04.27-11.42.14;8;VE_Male;30;134;VE_OneSector;1;1;Right;0;0;0;0;0.89638;0.650356;716.349915;717.109924;0.76001;
2017.04.27-11.42.17;8;VE_Male;30;135;VE_OneSector;2;0;Left;0;0;0;0;0.893359;0.664913;719.343201;720.170471;0.827271;
2017.04.27-11.42.20;8;VE_Male;30;136;VE_OneSector;1;0;Left;1;0;0;0;0.895752;0.786737;722.482361;723.599731;1.117371;
2017.04.27-11.42.23;8;VE_Male;30;137;VE_OneSector;1;0;Left;0;0;0;0;0.814652;0.742314;725.800293;726.738037;0.937744;
2017.04.27-11.42.26;8;VE_Male;30;138;VE_OneSector;1;1;Right;0;0;0;0;0.729353;0.712711;728.760742;729.564331;0.803589;
2017.04.27-11.42.29;8;VE_Male;30;139;VE_OneSector;1;0;Left;0;0;0;0;0.87578;0.679153;731.753418;732.646484;0.893066;
2017.04.27-11.42.32;8;VE_Male;30;140;VE_OneSector;1;0;Left;0;0;0;0;0.807114;0.719089;734.791992;735.686096;0.894104;
2017.04.27-11.42.35;8;VE_Male;30;141;VE_OneSector;2;1;Right;0;0;0;0;0.708032;0.683822;737.719055;738.544678;0.825623;
2017.04.27-11.42.38;8;VE_Male;30;142;VE_OneSector;1;1;Right;0;0;0;0;0.743641;0.789087;740.756958;741.538513;0.781555;
2017.04.27-11.42.41;8;VE_Male;30;143;VE_OneSector;1;0;Left;0;0;0;0;0.824418;0.749705;743.705688;744.644226;0.938538;
2017.04.27-11.42.44;8;VE_Male;30;144;VE_OneSector;1;1;Right;0;0;0;0;0.868456;0.789721;746.900513;747.704102;0.803589;
2017.04.27-11.42.47;8;VE_Male;30;145;VE_OneSector;2;0;Left;0;0;0;0;0.742213;0.759075;749.837585;750.68634;0.848755;
2017.04.27-11.42.50;8;VE_Male;30;146;VE_OneSector;1;1;Right;0;0;0;0;0.761049;0.688247;752.786804;753.523987;0.737183;
2017.04.27-11.42.53;8;VE_Male;30;147;VE_OneSector;1;1;Right;0;0;0;0;0.730708;0.611994;755.523621;756.350281;0.82666;
2017.04.27-11.42.56;8;VE_Male;30;148;VE_OneSector;1;0;Left;0;0;0;0;0.811148;0.793536;758.595764;759.332947;0.737183;
2017.04.27-11.42.59;8;VE_Male;30;149;VE_OneSector;1;1;Right;0;0;0;0;0.783816;0.780261;761.521667;762.21521;0.693542;
2017.04.27-11.43.02;8;VE_Male;30;150;VE_OneSector;1;1;Right;0;0;0;0;0.803775;0.622486;764.303406;765.063354;0.759949;
2017.04.27-11.43.05;8;VE_Male;30;151;VE_OneSector;2;1;Right;0;0;0;0;0.81774;0.686233;767.218506;768.045532;0.827026;
2017.04.27-11.43.07;8;VE_Male;30;152;VE_OneSector;1;1;Right;0;0;0;0;0.729463;0.791449;770.191162;771.017761;0.826599;
2017.04.27-11.43.11;8;VE_Male;30;153;VE_OneSector;1;1;Right;0;0;0;0;0.893622;0.706833;773.262451;774.000183;0.737732;
2017.04.27-11.43.14;8;VE_Male;30;154;VE_OneSector;1;0;Left;0;0;0;0;0.819407;0.732609;776.166687;777.104187;0.9375;
2017.04.27-11.43.17;8;VE_Male;30;155;VE_OneSector;1;0;Left;0;0;0;0;0.865215;0.602368;779.249329;780.098328;0.848999;
2017.04.27-11.43.20;8;VE_Male;30;156;VE_OneSector;2;0;Left;0;0;0;0;0.80557;0.635395;782.1875;783.036133;0.848633;
2017.04.27-11.43.23;8;VE_Male;30;157;VE_OneSector;2;1;Right;0;0;0;0;0.851537;0.770513;785.316223;786.052307;0.736084;
2017.04.27-11.43.26;8;VE_Male;30;158;VE_OneSector;2;1;Right;0;0;0;0;0.805918;0.612922;788.152771;788.912354;0.759583;
2017.04.27-11.43.28;8;VE_Male;30;159;VE_OneSector;1;1;Right;0;0;0;0;0.734498;0.725144;791.045959;791.828186;0.782227;
2017.04.27-11.43.31;8;VE_Male;30;160;VE_OneSector;2;1;Right;0;0;0;0;0.834513;0.693338;793.983826;794.787598;0.803772;
2017.04.27-11.43.34;8;VE_Male;30;161;VE_OneSector;2;1;Right;0;0;0;0;0.881616;0.600287;796.886841;797.736267;0.849426;
2017.04.27-11.43.37;8;VE_Male;30;162;VE_OneSector;1;1;Right;0;0;0;0;0.736683;0.636268;799.746216;800.529114;0.782898;
2017.04.27-11.43.40;8;VE_Male;30;163;VE_OneSector;2;1;Right;0;0;0;0;0.893597;0.679031;802.795593;803.511475;0.715881;
2017.04.27-11.43.43;8;VE_Male;30;164;VE_OneSector;1;1;Right;0;0;0;0;0.74922;0.774224;805.666748;806.448364;0.781616;
2017.04.27-11.43.46;8;VE_Male;30;165;VE_OneSector;2;1;Right;0;0;0;0;0.777053;0.747411;808.593933;809.330444;0.736511;
2017.04.27-11.43.49;8;VE_Male;30;166;VE_OneSector;1;0;Left;0;0;0;0;0.885479;0.678994;811.532166;812.46991;0.937744;
2017.04.27-11.43.52;8;VE_Male;30;167;VE_OneSector;1;1;Right;0;0;0;0;0.742134;0.673305;814.59198;815.396301;0.804321;
2017.04.27-11.43.55;8;VE_Male;30;168;VE_OneSector;2;1;Right;0;0;0;0;0.74554;0.653047;817.417358;818.244995;0.827637;
2017.04.27-11.43.58;8;VE_Male;30;169;VE_OneSector;1;1;Right;0;0;0;0;0.825187;0.610389;820.310242;821.070129;0.759888;
2017.04.27-11.44.01;8;VE_Male;30;170;VE_OneSector;1;0;Left;0;0;0;0;0.75143;0.645961;823.124817;824.041016;0.916199;
2017.04.27-11.44.04;8;VE_Male;30;171;VE_OneSector;2;0;Left;0;0;0;0;0.736402;0.626984;826.062988;826.911865;0.848877;
2017.04.27-11.44.06;8;VE_Male;30;172;VE_OneSector;2;1;Right;0;0;0;0;0.807193;0.795807;829.145874;829.882507;0.736633;
2017.04.27-11.44.09;8;VE_Male;30;173;VE_OneSector;2;1;Right;0;0;0;0;0.73249;0.760015;832.03833;832.820313;0.781982;
2017.04.27-11.44.12;8;VE_Male;30;174;VE_OneSector;1;1;Right;0;0;0;0;0.784097;0.795557;835.043213;835.869934;0.826721;
2017.04.27-11.44.15;8;VE_Male;30;175;VE_OneSector;1;1;Right;0;0;0;0;0.714325;0.693863;837.891479;838.718262;0.826782;
2017.04.27-11.44.18;8;VE_Male;30;176;VE_OneSector;2;1;Right;0;0;0;0;0.830784;0.6845;840.975159;841.801758;0.826599;
2017.04.27-11.44.21;8;VE_Male;30;177;VE_OneSector;2;0;Left;0;0;0;0;0.749586;0.664333;843.833557;844.7948;0.961243;
2017.04.27-11.44.24;8;VE_Male;30;178;VE_OneSector;1;1;Right;0;0;0;0;0.708405;0.664663;846.827148;847.631592;0.804443;
2017.04.27-11.44.27;8;VE_Male;30;179;VE_OneSector;2;1;Right;0;0;0;0;0.820457;0.7875;849.910034;850.625183;0.715149;
2017.04.27-11.44.30;8;VE_Male;30;180;VE_OneSector;1;1;Right;0;0;0;0;0.750813;0.742174;852.814392;853.573547;0.759155;
2017.04.27-11.44.43;8;VE_Male;30;181;VE_OneSector;2;1;Right;0;0;0;0;0.796231;0.613654;865.73645;866.451355;0.714905;
2017.04.27-11.44.46;8;VE_Male;30;182;VE_OneSector;2;0;Left;0;0;0;0;0.849687;0.793707;868.819336;869.601746;0.78241;
2017.04.27-11.44.49;8;VE_Male;30;183;VE_OneSector;1;1;Right;0;0;0;0;0.831004;0.706204;871.825195;872.606934;0.781738;
2017.04.27-11.44.52;8;VE_Male;30;184;VE_OneSector;2;0;Left;1;0;0;0;0.86469;0.657863;874.795349;875.68927;0.893921;
2017.04.27-11.44.55;8;VE_Male;30;185;VE_OneSector;1;0;Left;0;0;0;0;0.786312;0.645564;877.866821;878.737732;0.870911;
2017.04.27-11.44.58;8;VE_Male;30;186;VE_OneSector;2;1;Right;0;0;0;0;0.858641;0.651601;880.815491;881.57489;0.759399;
2017.04.27-11.45.01;8;VE_Male;30;187;VE_OneSector;1;0;Left;0;0;0;0;0.878802;0.658071;883.731201;884.580139;0.848938;
2017.04.27-11.45.04;8;VE_Male;30;188;VE_OneSector;1;0;Left;1;0;0;0;0.75768;0.711631;886.692139;887.674011;0.981873;
2017.04.27-11.45.07;8;VE_Male;30;189;VE_OneSector;1;0;Left;0;0;0;0;0.75287;0.6699;889.751831;890.600464;0.848633;
2017.04.27-11.45.10;8;VE_Male;30;190;VE_OneSector;2;1;Right;0;0;0;0;0.836387;0.760802;892.823914;893.538452;0.714539;
2017.04.27-11.45.13;8;VE_Male;30;191;VE_OneSector;1;1;Right;0;0;0;0;0.778341;0.785962;895.695313;896.410217;0.714905;
2017.04.27-11.45.16;8;VE_Male;30;192;VE_OneSector;2;0;Left;0;0;0;0;0.82797;0.699545;898.576904;899.51593;0.939026;
2017.04.27-11.45.19;8;VE_Male;30;193;VE_OneSector;1;1;Right;0;0;0;0;0.773098;0.793786;901.794067;902.620728;0.82666;
2017.04.27-11.45.22;8;VE_Male;30;194;VE_OneSector;2;0;Left;0;0;0;0;0.859416;0.62226;904.765015;905.63678;0.871765;
2017.04.27-11.45.25;8;VE_Male;30;195;VE_OneSector;1;1;Right;0;0;0;0;0.750746;0.692471;907.703247;908.486328;0.783081;
2017.04.27-11.45.28;8;VE_Male;30;196;VE_OneSector;1;1;Right;0;0;0;0;0.811624;0.658705;910.618835;911.400574;0.781738;
2017.04.27-11.45.31;8;VE_Male;30;197;VE_OneSector;2;1;Right;0;0;0;0;0.893304;0.646577;913.59021;914.371094;0.780884;
2017.04.27-11.45.34;8;VE_Male;30;198;VE_OneSector;1;0;Left;0;0;0;0;0.704602;0.640449;916.370605;917.287048;0.916443;
2017.04.27-11.45.37;8;VE_Male;30;199;VE_OneSector;1;1;Right;0;0;0;0;0.748781;0.765007;919.509827;920.358459;0.848633;
2017.04.27-11.45.40;8;VE_Male;30;200;VE_OneSector;2;1;Right;0;0;0;0;0.707593;0.792224;922.570251;923.329163;0.758911;
2017.04.27-11.45.43;8;VE_Male;30;201;VE_OneSector;1;1;Right;0;0;0;0;0.853941;0.704935;925.541382;926.389832;0.84845;
2017.04.27-11.45.46;8;VE_Male;30;202;VE_OneSector;2;1;Right;0;0;0;0;0.774239;0.64836;928.490356;929.339172;0.848816;
2017.04.27-11.45.49;8;VE_Male;30;203;VE_OneSector;2;1;Right;0;0;0;0;0.781857;0.700711;931.50708;932.356262;0.849182;
2017.04.27-11.45.52;8;VE_Male;30;204;VE_OneSector;1;0;Left;0;0;0;0;0.702734;0.794208;934.545471;935.416321;0.87085;
2017.04.27-11.45.55;8;VE_Male;30;205;VE_OneSector;1;1;Right;0;0;0;0;0.814628;0.617756;937.538574;938.453857;0.915283;
2017.04.27-11.45.58;8;VE_Male;30;206;VE_OneSector;1;1;Right;0;0;0;0;0.820994;0.632496;940.564941;941.414551;0.849609;
2017.04.27-11.46.01;8;VE_Male;30;207;VE_OneSector;1;1;Right;0;0;0;0;0.841008;0.631489;943.581543;944.295898;0.714355;
2017.04.27-11.46.04;8;VE_Male;30;208;VE_OneSector;1;1;Right;0;0;0;0;0.896783;0.774804;946.641846;947.445923;0.804077;
2017.04.27-11.46.07;8;VE_Male;30;209;VE_OneSector;2;1;Right;0;0;0;0;0.879089;0.731217;949.680603;950.418091;0.737488;
2017.04.27-11.46.10;8;VE_Male;30;210;VE_OneSector;2;1;Right;0;0;0;0;0.872912;0.657881;952.596008;953.3797;0.783691;
2017.04.27-11.46.13;8;VE_Male;30;211;VE_OneSector;1;1;Right;0;0;0;0;0.82393;0.649037;955.512024;956.24884;0.736816;
2017.04.27-11.46.16;8;VE_Male;30;212;VE_OneSector;2;0;Left;0;0;0;0;0.827354;0.785162;958.595337;959.465698;0.870361;
2017.04.27-11.46.19;8;VE_Male;30;213;VE_OneSector;1;0;Left;0;0;0;0;0.820219;0.613758;961.576294;962.425415;0.849121;
2017.04.27-11.46.22;8;VE_Male;30;214;VE_OneSector;1;0;Left;0;0;0;0;0.758443;0.79306;964.649658;965.564941;0.915283;
2017.04.27-11.46.25;8;VE_Male;30;215;VE_OneSector;2;0;Left;0;0;0;0;0.859941;0.729795;967.776306;968.624695;0.848389;
2017.04.27-11.46.28;8;VE_Male;30;216;VE_OneSector;1;0;Left;0;0;0;0;0.79498;0.742448;970.802979;971.606995;0.804016;
2017.04.27-11.46.31;8;VE_Male;30;217;VE_OneSector;1;1;Right;0;0;0;0;0.805032;0.781085;973.851685;974.658081;0.806396;
2017.04.27-11.46.34;8;VE_Male;30;218;VE_OneSector;2;0;Left;0;0;0;0;0.831431;0.63506;976.856628;977.705322;0.848694;
2017.04.27-11.46.37;8;VE_Male;30;219;VE_OneSector;1;1;Right;0;0;0;0;0.83502;0.659969;979.92804;980.710815;0.782776;
2017.04.27-11.46.40;8;VE_Male;30;220;VE_OneSector;2;1;Right;0;0;0;0;0.788064;0.754863;982.921753;983.726563;0.80481;
2017.04.27-11.46.43;8;VE_Male;30;221;VE_OneSector;2;0;Left;0;0;0;0;0.719697;0.621149;985.703857;986.619019;0.915161;
2017.04.27-11.46.46;8;VE_Male;30;222;VE_OneSector;2;1;Right;0;0;0;0;0.896112;0.634468;988.864502;989.579285;0.714783;
2017.04.27-11.46.49;8;VE_Male;30;223;VE_OneSector;2;0;Left;0;0;0;0;0.716767;0.760552;991.690613;992.605774;0.915161;
2017.04.27-11.46.52;8;VE_Male;30;224;VE_OneSector;1;0;Left;0;0;0;0;0.807913;0.646583;994.740112;995.633789;0.893677;
2017.04.27-11.46.55;8;VE_Male;30;225;VE_OneSector;1;0;Left;0;0;0;0;0.894519;0.719218;997.856018;998.704346;0.848328;
2017.04.27-11.46.58;8;VE_Male;30;226;VE_OneSector;1;0;Left;0;0;0;0;0.732093;0.620362;1000.692688;1001.609192;0.916504;
2017.04.27-11.47.01;8;VE_Male;30;227;VE_OneSector;1;0;Left;0;0;0;0;0.879449;0.612268;1003.775452;1004.6026;0.827148;
2017.04.27-11.47.04;8;VE_Male;30;228;VE_OneSector;2;0;Left;0;0;0;0;0.79371;0.682846;1006.735168;1007.584839;0.84967;
2017.04.27-11.47.07;8;VE_Male;30;229;VE_OneSector;1;1;Right;0;0;0;0;0.828935;0.782769;1009.874634;1010.635071;0.760437;
2017.04.27-11.47.10;8;VE_Male;30;230;VE_OneSector;2;1;Right;0;0;0;0;0.819394;0.725352;1012.867859;1013.605408;0.737549;
2017.04.27-11.47.13;8;VE_Male;30;231;VE_OneSector;2;0;Left;1;0;0;0;0.828928;0.780645;1015.906372;1016.845276;0.938904;
2017.04.27-11.47.16;8;VE_Male;30;232;VE_OneSector;1;0;Left;0;0;0;0;0.747536;0.694876;1018.967529;1019.838318;0.870789;
2017.04.27-11.47.19;8;VE_Male;30;233;VE_OneSector;1;0;Left;0;0;0;0;0.716535;0.766576;1022.007141;1022.832031;0.82489;
2017.04.27-11.47.22;8;VE_Male;30;234;VE_OneSector;1;0;Left;0;0;0;0;0.86342;0.710532;1025.053833;1025.859253;0.80542;
2017.04.27-11.47.25;8;VE_Male;30;235;VE_OneSector;1;0;Left;0;0;0;0;0.727747;0.740941;1028.025513;1028.874634;0.849121;
2017.04.27-11.47.28;8;VE_Male;30;236;VE_OneSector;2;1;Right;0;0;0;0;0.859374;0.604914;1030.963623;1031.745605;0.781982;
2017.04.27-11.47.31;8;VE_Male;30;237;VE_OneSector;1;1;Right;0;0;0;0;0.770052;0.797675;1034.068604;1034.806519;0.737915;
2017.04.27-11.47.34;8;VE_Male;30;238;VE_OneSector;2;0;Left;0;0;0;0;0.719947;0.690542;1036.906738;1037.755249;0.848511;
2017.04.27-11.47.37;8;VE_Male;30;239;VE_OneSector;2;1;Right;0;0;0;0;0.720087;0.603204;1039.776855;1040.513672;0.736816;
2017.04.27-11.47.40;8;VE_Male;30;240;VE_OneSector;2;0;Left;0;0;0;0;0.832072;0.751238;1042.79187;1043.597046;0.805176;
2017.04.27-11.47.53;8;VE_Male;30;241;VE_OneSector;1;1;Right;1;0;0;0;0.746339;0.700357;1055.738525;1056.564941;0.826416;
2017.04.27-11.47.56;8;VE_Male;30;242;VE_OneSector;2;1;Right;0;0;0;0;0.720173;0.658535;1058.564575;1059.302124;0.737549;
2017.04.27-11.47.59;8;VE_Male;30;243;VE_OneSector;1;0;Left;0;0;0;0;0.856755;0.637245;1061.41394;1062.305786;0.891846;
2017.04.27-11.48.02;8;VE_Male;30;244;VE_OneSector;1;0;Left;0;0;0;0;0.806394;0.613105;1064.383789;1065.1875;0.803711;
2017.04.27-11.48.05;8;VE_Male;30;245;VE_OneSector;1;0;Left;0;0;0;0;0.87141;0.721189;1067.421753;1068.248169;0.826416;
2017.04.27-11.48.08;8;VE_Male;30;246;VE_OneSector;1;0;Left;0;0;0;0;0.795669;0.611158;1070.303467;1071.130615;0.827148;
2017.04.27-11.48.11;8;VE_Male;30;247;VE_OneSector;2;1;Right;0;0;0;0;0.820188;0.797632;1073.38562;1074.10083;0.71521;
2017.04.27-11.48.14;8;VE_Male;30;248;VE_OneSector;1;NaN;NaN;NaN;NaN;NaN;NaN;NaN;NaN;NaN;NaN;;
2017.04.27-11.48.17;8;VE_Male;30;248;VE_OneSector;1;0;Left;1;0;0;0;0.851366;0.717002;1080.110596;1081.071167;0.960571;
2017.04.27-11.48.21;8;VE_Male;30;249;VE_OneSector;2;0;Left;0;0;0;0;0.74883;0.752916;1083.28186;1084.153076;0.871216;
2017.04.27-11.48.24;8;VE_Male;30;250;VE_OneSector;2;0;Left;0;0;0;0;0.777181;0.643446;1086.230347;1087.078735;0.848389;
2017.04.27-11.48.26;8;VE_Male;30;251;VE_OneSector;2;0;Left;0;0;0;0;0.712207;0.75457;1089.146118;1090.01709;0.870972;
2017.04.27-11.48.29;8;VE_Male;30;252;VE_OneSector;1;1;Right;0;0;0;0;0.701642;0.702744;1092.062012;1092.820068;0.758057;
2017.04.27-11.48.33;8;VE_Male;30;253;VE_OneSector;2;0;Left;0;0;0;0;0.875915;0.701834;1095.130737;1095.801025;0.670288;
2017.04.27-11.48.35;8;VE_Male;30;254;VE_OneSector;2;0;Left;0;0;0;0;0.72024;0.761992;1097.979614;1098.850708;0.871094;
2017.04.27-11.48.38;8;VE_Male;30;255;VE_OneSector;1;0;Left;0;0;0;0;0.714301;0.696652;1100.928711;1101.778076;0.849365;
2017.04.27-11.48.41;8;VE_Male;30;256;VE_OneSector;2;1;Right;0;0;0;0;0.845756;0.794104;1104.077881;1104.860474;0.782593;
2017.04.27-11.48.44;8;VE_Male;30;257;VE_OneSector;2;NaN;NaN;NaN;NaN;NaN;NaN;NaN;NaN;NaN;NaN;;
2017.04.27-11.48.47;8;VE_Male;30;257;VE_OneSector;1;0;Left;1;0;0;0;0.72121;0.695303;1110.021851;1110.870605;0.848755;
2017.04.27-11.48.50;8;VE_Male;30;258;VE_OneSector;1;0;Left;0;0;0;0;0.779043;0.761107;1113.103516;1113.952759;0.849243;
2017.04.27-11.48.54;8;VE_Male;30;259;VE_OneSector;2;0;Left;0;0;0;0;0.837266;0.699588;1116.153442;1117.069458;0.916016;
2017.04.27-11.48.57;8;VE_Male;30;260;VE_OneSector;2;0;Left;0;0;0;0;0.796603;0.795477;1119.280762;1120.151489;0.870728;
2017.04.27-11.49.00;8;VE_Male;30;261;VE_OneSector;1;0;Left;0;0;0;0;0.82432;0.798187;1122.396851;1123.268311;0.87146;
2017.04.27-11.49.03;8;VE_Male;30;262;VE_OneSector;1;1;Right;0;0;0;0;0.860833;0.730992;1125.536499;1126.273315;0.736816;
2017.04.27-11.49.06;8;VE_Male;30;263;VE_OneSector;1;1;Right;0;0;0;0;0.751637;0.728605;1128.585327;1129.322388;0.737061;
2017.04.27-11.49.09;8;VE_Male;30;264;VE_OneSector;2;1;Right;0;0;0;0;0.835942;0.784582;1131.612305;1132.618896;1.006592;
2017.04.27-11.49.13;8;VE_Male;30;265;VE_OneSector;2;0;Left;0;0;0;0;0.723096;0.789721;1135.220703;1136.158325;0.937622;
2017.04.27-11.49.16;8;VE_Male;30;266;VE_OneSector;1;1;Right;0;0;0;0;0.888305;0.742723;1138.403442;1139.185913;0.782471;
2017.04.27-11.49.19;8;VE_Male;30;267;VE_OneSector;1;0;Left;0;0;0;0;0.81857;0.714402;1141.363647;1142.213257;0.849609;
2017.04.27-11.49.22;8;VE_Male;30;268;VE_OneSector;1;1;Right;0;0;0;0;0.740388;0.646602;1144.290405;1145.028198;0.737793;
2017.04.27-11.49.25;8;VE_Male;30;269;VE_OneSector;2;0;Left;0;0;0;0;0.86032;0.767193;1147.374023;1148.268066;0.894043;
2017.04.27-11.49.28;8;VE_Male;30;270;VE_OneSector;2;0;Left;0;0;0;0;0.749629;0.70228;1150.368652;1151.261963;0.893311;
2017.04.27-11.49.31;8;VE_Male;30;271;VE_OneSector;2;0;Left;0;0;0;0;0.804434;0.666964;1153.395264;1154.333984;0.938721;
2017.04.27-11.49.34;8;VE_Male;30;272;VE_OneSector;1;1;Right;0;0;0;0;0.812375;0.615839;1156.445923;1157.226563;0.78064;
2017.04.27-11.49.37;8;VE_Male;30;273;VE_OneSector;1;1;Right;0;0;0;0;0.757234;0.73455;1159.439331;1160.287598;0.848267;
2017.04.27-11.49.40;8;VE_Male;30;274;VE_OneSector;2;NaN;NaN;NaN;NaN;NaN;NaN;NaN;NaN;NaN;NaN;;
2017.04.27-11.49.46;8;VE_Male;30;274;VE_OneSector;2;0;Left;1;0;0;0;0.82794;0.610077;1168.710327;1169.781982;1.071655;
2017.04.27-11.49.49;8;VE_Male;30;275;VE_OneSector;1;1;Right;0;0;0;0;0.749409;0.67015;1171.894287;1172.677002;0.782715;
2017.04.27-11.49.52;8;VE_Male;30;276;VE_OneSector;1;1;Right;0;0;0;0;0.85537;0.688247;1174.988525;1175.859985;0.87146;
2017.04.27-11.49.55;8;VE_Male;30;277;VE_OneSector;2;0;Left;0;0;0;0;0.78757;0.703708;1178.059204;1178.998169;0.938965;
2017.04.27-11.49.59;8;VE_Male;30;278;VE_OneSector;2;1;Right;0;0;0;0;0.87138;0.786309;1181.366211;1182.170532;0.804321;
2017.04.27-11.50.02;8;VE_Male;30;279;VE_OneSector;1;1;Right;0;0;0;0;0.809104;0.726682;1184.405396;1185.188232;0.782837;
2017.04.27-11.50.05;8;VE_Male;30;280;VE_OneSector;2;1;Right;0;0;0;0;0.744136;0.663161;1187.342896;1188.258423;0.915527;
2017.04.27-11.50.08;8;VE_Male;30;281;VE_OneSector;1;0;Left;0;0;0;0;0.751961;0.751073;1190.447754;1191.31897;0.871216;
2017.04.27-11.50.11;8;VE_Male;30;282;VE_OneSector;2;0;Left;0;0;0;0;0.714411;0.680966;1193.430908;1194.457397;1.026489;
2017.04.27-11.50.14;8;VE_Male;30;283;VE_OneSector;1;0;Left;0;0;0;0;0.833348;0.751872;1196.725464;1197.72937;1.003906;
2017.04.27-11.50.17;8;VE_Male;30;284;VE_OneSector;2;0;Left;0;0;0;0;0.740071;0.705899;1199.863159;1200.75708;0.893921;
2017.04.27-11.50.20;8;VE_Male;30;285;VE_OneSector;1;0;Left;0;0;0;0;0.856694;0.630396;1202.945923;1203.862061;0.916138;
2017.04.27-11.50.23;8;VE_Male;30;286;VE_OneSector;2;1;Right;0;0;0;0;0.765645;0.733958;1206.006104;1206.834106;0.828003;
2017.04.27-11.50.27;8;VE_Male;30;287;VE_OneSector;2;NaN;NaN;NaN;NaN;NaN;NaN;NaN;NaN;NaN;NaN;;
2017.04.27-11.50.29;8;VE_Male;30;287;VE_OneSector;1;0;Left;1;0;0;0;0.789828;0.615424;1211.457886;1212.35144;0.893555;
2017.04.27-11.50.32;8;VE_Male;30;288;VE_OneSector;1;1;Right;0;0;0;0;0.81395;0.733421;1214.653198;1215.435059;0.78186;
2017.04.27-11.50.35;8;VE_Male;30;289;VE_OneSector;2;0;Left;0;0;0;0;0.779427;0.712589;1217.690186;1218.517212;0.827026;
2017.04.27-11.50.38;8;VE_Male;30;290;VE_OneSector;1;1;Right;0;0;0;0;0.820884;0.728703;1220.738647;1221.47644;0.737793;
2017.04.27-11.50.41;8;VE_Male;30;291;VE_OneSector;2;1;Right;0;0;0;0;0.798459;0.627979;1223.599121;1224.468994;0.869873;
2017.04.27-11.50.44;8;VE_Male;30;292;VE_OneSector;2;0;Left;0;0;0;0;0.872192;0.746202;1226.814453;1227.662842;0.848389;
2017.04.27-11.50.47;8;VE_Male;30;293;VE_OneSector;2;0;Left;0;0;0;0;0.723579;0.753136;1229.830444;1230.768311;0.937866;
2017.04.27-11.50.50;8;VE_Male;30;294;VE_OneSector;1;1;Right;0;0;0;0;0.805765;0.753649;1233.047974;1233.829712;0.781738;
2017.04.27-11.50.53;8;VE_Male;30;295;VE_OneSector;2;1;Right;0;0;0;0;0.703357;0.77669;1236.063354;1236.845581;0.782227;
2017.04.27-11.50.56;8;VE_Male;30;296;VE_OneSector;1;NaN;NaN;NaN;NaN;NaN;NaN;NaN;NaN;NaN;NaN;;
2017.04.27-11.51.14;8;VE_Male;30;296;VE_OneSector;2;0;Left;1;0;0;0;0.716376;0.699435;1256.460205;1257.667603;1.207397;
2017.04.27-11.51.18;8;VE_Male;30;297;VE_OneSector;1;0;Left;1;0;0;0;0.846226;0.646266;1260.539429;1261.56665;1.027222;
2017.04.27-11.51.21;8;VE_Male;30;298;VE_OneSector;1;0;Left;0;0;0;0;0.823112;0.60069;1263.688354;1264.716309;1.027954;
2017.04.27-11.51.24;8;VE_Male;30;299;VE_OneSector;1;0;Left;0;0;0;0;0.851946;0.600171;1266.794312;1267.754028;0.959717;
2017.04.27-11.51.27;8;VE_Male;30;300;VE_OneSector;1;1;Right;0;0;0;0;0.808298;0.771014;1270.02124;1270.870728;0.849487;
2017.04.27-11.51.41;8;VE_Male;30;301;VE_OneSector;1;1;Right;0;0;0;0;0.84561;0.643648;1283.669067;1284.507202;0.838135;
2017.04.27-11.51.44;8;VE_Male;30;302;VE_OneSector;1;0;Left;0;0;0;0;0.882543;0.788617;1286.996704;1287.867798;0.871094;
2017.04.27-11.51.47;8;VE_Male;30;303;VE_OneSector;2;1;Right;0;0;0;0;0.776644;0.62942;1289.934326;1290.670776;0.73645;
2017.04.27-11.51.50;8;VE_Male;30;304;VE_OneSector;1;1;Right;1;0;0;0;0.890564;0.788708;1293.173462;1294.087891;0.914429;
2017.04.27-11.51.54;8;VE_Male;30;305;VE_OneSector;1;0;Left;0;0;0;0;0.857115;0.623786;1296.221802;1297.294312;1.07251;
2017.04.27-11.51.57;8;VE_Male;30;306;VE_OneSector;1;0;Left;1;0;0;0;0.849443;0.707962;1299.530029;1300.511963;0.981934;
2017.04.27-11.52.00;8;VE_Male;30;307;VE_OneSector;1;0;Left;0;0;0;0;0.762465;0.713694;1302.657104;1303.572388;0.915283;
2017.04.27-11.52.03;8;VE_Male;30;308;VE_OneSector;2;0;Left;0;0;0;0;0.811954;0.654085;1305.728149;1306.621826;0.893677;
2017.04.27-11.52.06;8;VE_Male;30;309;VE_OneSector;1;1;Right;0;0;0;0;0.757356;0.738737;1308.78894;1309.59436;0.80542;
2017.04.27-11.52.09;8;VE_Male;30;310;VE_OneSector;2;0;Left;0;0;0;0;0.854814;0.60033;1311.805054;1312.766235;0.961182;
2017.04.27-11.52.12;8;VE_Male;30;311;VE_OneSector;1;1;Right;0;0;0;0;0.746388;0.748204;1314.989014;1315.748657;0.759644;
2017.04.27-11.52.15;8;VE_Male;30;312;VE_OneSector;2;1;Right;0;0;0;0;0.791964;0.605042;1317.870483;1318.697998;0.827515;
2017.04.27-11.52.18;8;VE_Male;30;313;VE_OneSector;1;1;Right;0;0;0;0;0.849919;0.783123;1321.03186;1321.880127;0.848267;
2017.04.27-11.52.21;8;VE_Male;30;314;VE_OneSector;1;1;Right;0;0;0;0;0.81287;0.756175;1324.125488;1324.975342;0.849854;
2017.04.27-11.52.24;8;VE_Male;30;315;VE_OneSector;2;NaN;NaN;NaN;NaN;NaN;NaN;NaN;NaN;NaN;NaN;;
2017.04.27-11.52.28;8;VE_Male;30;315;VE_OneSector;2;0;Left;1;0;0;0;0.873229;0.622871;1330.737183;1331.743164;1.005981;
2017.04.27-11.52.31;8;VE_Male;30;316;VE_OneSector;2;0;Left;0;0;0;0;0.738911;0.694656;1333.898193;1334.79248;0.894287;
2017.04.27-11.52.34;8;VE_Male;30;317;VE_OneSector;2;1;Right;0;0;0;0;0.793405;0.606128;1336.880127;1337.930786;1.050659;
2017.04.27-11.52.38;8;VE_Male;30;318;VE_OneSector;2;0;Left;1;0;0;0;0.893634;0.751012;1340.287109;1341.249634;0.962524;
2017.04.27-11.52.41;8;VE_Male;30;319;VE_OneSector;2;1;Right;0;0;0;0;0.716022;0.614313;1343.280151;1344.241211;0.96106;
2017.04.27-11.52.44;8;VE_Male;30;320;VE_OneSector;1;0;Left;0;0;0;0;0.799442;0.608441;1346.397217;1347.469482;1.072266;
2017.04.27-11.52.47;8;VE_Male;30;321;VE_OneSector;1;0;Left;0;0;0;0;0.719691;0.693979;1349.692383;1350.587158;0.894775;
2017.04.27-11.52.50;8;VE_Male;30;322;VE_OneSector;1;1;Right;0;0;0;0;0.72696;0.766558;1352.864746;1353.715698;0.850952;
2017.04.27-11.52.53;8;VE_Male;30;323;VE_OneSector;1;1;Right;0;0;0;0;0.877386;0.690933;1356.026611;1356.898682;0.87207;
2017.04.27-11.52.57;8;VE_Male;30;324;VE_OneSector;2;0;Left;0;0;0;0;0.789987;0.763646;1359.221191;1360.115112;0.893921;
2017.04.27-11.53.00;8;VE_Male;30;325;VE_OneSector;2;1;Right;0;0;0;0;0.860332;0.685372;1362.382813;1363.186523;0.803711;
2017.04.27-11.53.03;8;VE_Male;30;326;VE_OneSector;1;0;Left;0;0;0;0;0.861931;0.62436;1365.464478;1366.268188;0.803711;
2017.04.27-11.53.06;8;VE_Male;30;327;VE_OneSector;2;1;Right;0;0;0;0;0.766939;0.652065;1368.446777;1369.228027;0.78125;
2017.04.27-11.53.09;8;VE_Male;30;328;VE_OneSector;1;0;Left;0;0;0;0;0.71717;0.732365;1371.540771;1372.344238;0.803467;
2017.04.27-11.53.12;8;VE_Male;30;329;VE_OneSector;2;1;Right;0;0;0;0;0.776717;0.745482;1374.611206;1375.371216;0.76001;
2017.04.27-11.53.15;8;VE_Male;30;330;VE_OneSector;1;1;Right;0;0;0;0;0.797531;0.727976;1377.717163;1378.475708;0.758545;
2017.04.27-11.53.18;8;VE_Male;30;331;VE_OneSector;1;0;Left;0;0;0;0;0.829124;0.609949;1380.743042;1381.703857;0.960815;
2017.04.27-11.53.21;8;VE_Male;30;332;VE_OneSector;2;0;Left;0;0;0;0;0.803629;0.630836;1383.826172;1384.71936;0.893188;
2017.04.27-11.53.24;8;VE_Male;30;333;VE_OneSector;2;0;Left;0;0;0;0;0.727534;0.714853;1386.841797;1387.734985;0.893188;
2017.04.27-11.53.27;8;VE_Male;30;334;VE_OneSector;2;1;Right;0;0;0;0;0.711298;0.787585;1389.937012;1390.71814;0.781128;
2017.04.27-11.53.30;8;VE_Male;30;335;VE_OneSector;2;1;Right;0;0;0;0;0.868114;0.714725;1393.074585;1393.880371;0.805786;
2017.04.27-11.53.34;8;VE_Male;30;336;VE_OneSector;1;1;Right;0;0;0;0;0.813016;0.644453;1396.124634;1397.017822;0.893188;
2017.04.27-11.53.37;8;VE_Male;30;337;VE_OneSector;1;1;Right;0;0;0;0;0.793722;0.634449;1399.130249;1400.000122;0.869873;
2017.04.27-11.53.40;8;VE_Male;30;338;VE_OneSector;2;0;Left;0;0;0;0;0.784268;0.745012;1402.245361;1403.184082;0.938721;
2017.04.27-11.53.43;8;VE_Male;30;339;VE_OneSector;1;0;Left;0;0;0;0;0.772842;0.679403;1405.373169;1406.288696;0.915527;
2017.04.27-11.53.46;8;VE_Male;30;340;VE_OneSector;1;1;Right;0;0;0;0;0.774996;0.752739;1408.533447;1409.404663;0.871216;
2017.04.27-11.53.49;8;VE_Male;30;341;VE_OneSector;2;0;Left;0;0;0;0;0.803476;0.670602;1411.649536;1412.564697;0.915161;
2017.04.27-11.53.52;8;VE_Male;30;342;VE_OneSector;1;1;Right;0;0;0;0;0.725983;0.698727;1414.699219;1415.570435;0.871216;
2017.04.27-11.53.55;8;VE_Male;30;343;VE_OneSector;2;0;Left;0;0;0;0;0.842039;0.704886;1417.92749;1418.776489;0.848999;
2017.04.27-11.53.58;8;VE_Male;30;344;VE_OneSector;2;0;Left;0;0;0;0;0.710254;0.654341;1420.864868;1421.803833;0.938965;
2017.04.27-11.54.01;8;VE_Male;30;345;VE_OneSector;1;0;Left;0;0;0;0;0.857274;0.640046;1424.036865;1424.908813;0.871948;
2017.04.27-11.54.05;8;VE_Male;30;346;VE_OneSector;2;0;Left;0;0;0;0;0.899518;0.628846;1427.119873;1427.96936;0.849487;
2017.04.27-11.54.07;8;VE_Male;30;347;VE_OneSector;1;1;Right;0;0;0;0;0.709168;0.604981;1429.979492;1430.805664;0.826172;
2017.04.27-11.54.10;8;VE_Male;30;348;VE_OneSector;1;1;Right;0;0;0;0;0.755507;0.69208;1432.984619;1433.765625;0.781006;
2017.04.27-11.54.13;8;VE_Male;30;349;VE_OneSector;2;0;Left;0;0;0;0;0.852849;0.734898;1436.099976;1436.882202;0.782227;
2017.04.27-11.54.17;8;VE_Male;30;350;VE_OneSector;1;1;Right;0;0;0;0;0.846452;0.722111;1439.171265;1439.952759;0.781494;
2017.04.27-11.54.20;8;VE_Male;30;351;VE_OneSector;2;0;Left;0;0;0;0;0.867486;0.731388;1442.310425;1443.203247;0.892822;
2017.04.27-11.54.23;8;VE_Male;30;352;VE_OneSector;2;0;Left;0;0;0;0;0.888452;0.777898;1445.515137;1446.432129;0.916992;
2017.04.27-11.54.26;8;VE_Male;30;353;VE_OneSector;1;0;Left;0;0;0;0;0.810202;0.647664;1448.564331;1449.546997;0.982666;
2017.04.27-11.54.29;8;VE_Male;30;354;VE_OneSector;1;1;Right;0;0;0;0;0.811887;0.696915;1451.770142;1452.574219;0.804077;
2017.04.27-11.54.32;8;VE_Male;30;355;VE_OneSector;1;0;Left;0;0;0;0;0.794992;0.698672;1454.82959;1455.789185;0.959595;
2017.04.27-11.54.35;8;VE_Male;30;356;VE_OneSector;2;1;Right;0;0;0;0;0.852831;0.717869;1458.113892;1458.896606;0.782715;
2017.04.27-11.54.39;8;VE_Male;30;357;VE_OneSector;1;0;Left;0;0;0;0;0.796603;0.696255;1461.129883;1461.978149;0.848267;
2017.04.27-11.54.42;8;VE_Male;30;358;VE_OneSector;1;0;Left;1;0;0;0;0.869439;0.728288;1464.290771;1465.318726;1.027954;
2017.04.27-11.54.45;8;VE_Male;30;359;VE_OneSector;2;1;Right;0;0;0;0;0.879467;0.709311;1467.630981;1468.568481;0.9375;
2017.04.27-11.54.48;8;VE_Male;30;360;VE_OneSector;2;1;Right;0;0;0;0;0.88338;0.73723;1470.88147;1471.77417;0.8927;
