Date;Subject's Number;Gender;Age;Trial Number;Spawn Method;Salient Side;Button Colour;Hand Used;Wrong Start Detected;Wrong Hand Used;Reaction Time Too Fast;Reaction Time Too Slow;Shape Spawn Delay;Stimulus Delay;Stimuli Start Time;Button Press Time;Reaction Time;
2017.04.27-10.05.29;7;VE_Female;24;1;VE_OneSector;2;1;Right;0;0;0;0;0.748372;0.631391;433.859192;434.638153;0.778961;
2017.04.27-10.05.32;7;VE_Female;24;2;VE_OneSector;2;1;Right;0;0;0;0;0.715857;0.784515;436.504181;437.173859;0.669678;
2017.04.27-10.05.35;7;VE_Female;24;3;VE_OneSector;1;1;Right;0;0;0;0;0.832408;0.618793;438.961334;439.653961;0.692627;
2017.04.27-10.05.37;7;VE_Female;24;4;VE_OneSector;2;0;Left;0;0;0;0;0.860521;0.611731;441.496368;442.144318;0.647949;
2017.04.27-10.05.40;7;VE_Female;24;5;VE_OneSector;2;0;Left;0;0;0;0;0.832908;0.67593;443.976807;444.60199;0.625183;
2017.04.27-10.05.42;7;VE_Female;24;6;VE_OneSector;2;1;Right;0;0;0;0;0.726557;0.675564;446.311157;447.04892;0.737762;
2017.04.27-10.05.44;7;VE_Female;24;7;VE_OneSector;1;0;Left;0;0;0;0;0.76061;0.75725;448.941132;449.606323;0.665192;
2017.04.27-10.05.47;7;VE_Female;24;8;VE_OneSector;2;0;Left;1;0;0;0;0.824296;0.651607;451.394928;452.912811;1.517883;
2017.04.27-10.05.50;7;VE_Female;24;9;VE_OneSector;2;1;Right;0;0;0;0;0.841221;0.601868;454.700012;455.403961;0.703949;
2017.04.27-10.05.53;7;VE_Female;24;10;VE_OneSector;2;1;Right;0;0;0;0;0.776254;0.675546;457.246582;457.916748;0.670166;
2017.04.27-10.05.55;7;VE_Female;24;11;VE_OneSector;1;0;Left;0;0;0;0;0.891192;0.715665;459.89386;462.338837;2.444977;
2017.04.27-10.06.00;7;VE_Female;24;12;VE_OneSector;2;1;Right;1;0;0;0;0.755501;0.687667;464.305237;464.964813;0.659576;
2017.04.27-10.06.02;7;VE_Female;24;13;VE_OneSector;2;0;Left;0;0;0;0;0.818485;0.678249;466.864166;467.555695;0.691528;
2017.04.27-10.06.05;7;VE_Female;24;14;VE_OneSector;1;1;Right;0;0;0;0;0.848888;0.70242;469.466278;470.404358;0.93808;
2017.04.27-10.06.08;7;VE_Female;24;15;VE_OneSector;2;1;Right;0;0;0;0;0.848412;0.775018;472.380676;473.050354;0.669678;
2017.04.27-10.06.10;7;VE_Female;24;16;VE_OneSector;1;0;Left;0;0;0;0;0.745314;0.602918;474.715942;475.508789;0.792847;
2017.04.27-10.06.13;7;VE_Female;24;17;VE_OneSector;1;0;Left;1;0;0;0;0.874328;0.754198;477.441071;478.74826;1.30719;
2017.04.27-10.06.16;7;VE_Female;24;18;VE_OneSector;2;1;Right;0;0;0;0;0.749086;0.660494;480.524353;481.160645;0.636292;
2017.04.27-10.06.18;7;VE_Female;24;19;VE_OneSector;2;1;Right;0;0;0;0;0.733497;0.708847;482.960022;483.785767;0.825745;
2017.04.27-10.06.21;7;VE_Female;24;20;VE_OneSector;2;1;Right;0;0;0;0;0.718104;0.779211;485.583618;486.298676;0.715057;
2017.04.27-10.06.24;7;VE_Female;24;21;VE_OneSector;1;1;Right;0;0;0;0;0.807822;0.68392;488.143005;488.906921;0.763916;
2017.04.27-10.06.26;7;VE_Female;24;22;VE_OneSector;2;1;Right;0;0;0;0;0.727216;0.665401;490.63269;491.326111;0.69342;
2017.04.27-10.06.29;7;VE_Female;24;23;VE_OneSector;1;0;Left;0;0;0;0;0.749641;0.608271;493.046143;493.838745;0.792603;
2017.04.27-10.06.31;7;VE_Female;24;24;VE_OneSector;2;0;Left;0;0;0;0;0.85645;0.722208;495.761688;496.34201;0.580322;
2017.04.27-10.06.34;7;VE_Female;24;25;VE_OneSector;1;0;Left;0;0;0;0;0.732502;0.751708;498.162628;498.867401;0.704773;
2017.04.27-10.06.36;7;VE_Female;24;26;VE_OneSector;1;0;Left;0;0;0;0;0.704315;0.669094;500.56308;501.154572;0.591492;
2017.04.27-10.06.39;7;VE_Female;24;27;VE_OneSector;1;1;Right;0;0;0;0;0.826969;0.706986;503.009125;503.679779;0.670654;
2017.04.27-10.06.41;7;VE_Female;24;28;VE_OneSector;2;1;Right;0;0;0;0;0.826115;0.68641;505.544647;506.181976;0.637329;
2017.04.27-10.06.43;7;VE_Female;24;29;VE_OneSector;2;0;Left;0;0;0;0;0.701355;0.696908;507.934937;508.493256;0.558319;
2017.04.27-10.06.46;7;VE_Female;24;30;VE_OneSector;1;1;Right;0;0;0;0;0.897156;0.684872;510.381348;511.078339;0.696991;
2017.04.27-10.06.49;7;VE_Female;24;31;VE_OneSector;2;1;Right;0;0;0;0;0.847569;0.606269;512.905884;513.608765;0.702881;
2017.04.27-10.06.51;7;VE_Female;24;32;VE_OneSector;2;0;Left;0;0;0;0;0.80109;0.700143;515.463318;516.067322;0.604004;
2017.04.27-10.06.53;7;VE_Female;24;33;VE_OneSector;1;1;Right;0;0;0;0;0.731819;0.738969;517.877747;518.635681;0.757935;
2017.04.27-10.06.56;7;VE_Female;24;34;VE_OneSector;1;0;Left;0;0;0;0;0.843181;0.612336;520.522827;521.215149;0.692322;
2017.04.27-10.06.59;7;VE_Female;24;35;VE_OneSector;1;0;Left;0;0;0;0;0.870476;0.699979;523.107971;523.981567;0.873596;
2017.04.27-10.07.01;7;VE_Female;24;36;VE_OneSector;2;1;Right;0;0;0;0;0.888562;0.790564;525.986145;526.690674;0.704529;
2017.04.27-10.07.04;7;VE_Female;24;37;VE_OneSector;1;1;Right;0;0;0;0;0.830784;0.602411;528.466431;529.225159;0.758728;
2017.04.27-10.07.07;7;VE_Female;24;38;VE_OneSector;1;1;Right;0;0;0;0;0.825547;0.662441;531.057922;532.229919;1.171997;
2017.04.27-10.07.10;7;VE_Female;24;39;VE_OneSector;1;0;Left;0;0;0;0;0.756679;0.799542;534.118164;534.800171;0.682007;
2017.04.27-10.07.12;7;VE_Female;24;40;VE_OneSector;2;1;Right;0;0;0;0;0.753902;0.608649;536.509033;537.301208;0.792175;
2017.04.27-10.07.15;7;VE_Female;24;41;VE_OneSector;1;1;Right;0;0;0;0;0.819584;0.741832;539.166443;539.769958;0.603516;
2017.04.27-10.07.17;7;VE_Female;24;42;VE_OneSector;1;0;Left;0;0;0;0;0.898132;0.782458;541.796204;542.507263;0.71106;
2017.04.27-10.07.20;7;VE_Female;24;43;VE_OneSector;2;1;Right;0;0;0;0;0.794143;0.758965;544.427734;545.120239;0.692505;
2017.04.27-10.07.23;7;VE_Female;24;44;VE_OneSector;2;1;Right;0;0;0;0;0.84572;0.654225;546.99646;547.600891;0.604431;
2017.04.27-10.07.25;7;VE_Female;24;45;VE_OneSector;1;1;Right;0;0;0;0;0.759029;0.766894;549.469421;550.113464;0.644043;
2017.04.27-10.07.27;7;VE_Female;24;46;VE_OneSector;2;1;Right;0;0;0;0;0.71048;0.680978;551.824097;552.447754;0.623657;
2017.04.27-10.07.30;7;VE_Female;24;47;VE_OneSector;1;0;Left;0;0;0;0;0.722742;0.699838;554.245972;554.872253;0.626282;
2017.04.27-10.07.32;7;VE_Female;24;48;VE_OneSector;2;0;Left;0;0;0;0;0.820798;0.700913;556.684631;557.406921;0.72229;
2017.04.27-10.07.35;7;VE_Female;24;49;VE_OneSector;2;1;Right;0;0;0;0;0.774368;0.667354;559.149536;559.708862;0.559326;
2017.04.27-10.07.37;7;VE_Female;24;50;VE_OneSector;2;0;Left;0;0;0;0;0.732887;0.652931;561.478882;562.143188;0.664307;
2017.04.27-10.07.39;7;VE_Female;24;51;VE_OneSector;2;1;Right;0;0;0;0;0.759346;0.636335;563.829895;564.466797;0.636902;
2017.04.27-10.07.42;7;VE_Female;24;52;VE_OneSector;2;1;Right;0;0;0;0;0.769137;0.621186;566.208923;566.812439;0.603516;
2017.04.27-10.07.44;7;VE_Female;24;53;VE_OneSector;1;0;Left;0;0;0;0;0.880297;0.63805;568.732849;569.41449;0.681641;
2017.04.27-10.07.47;7;VE_Female;24;54;VE_OneSector;2;0;Left;0;0;0;0;0.881323;0.604584;571.161926;571.829224;0.667297;
2017.04.27-10.07.49;7;VE_Female;24;55;VE_OneSector;1;1;Right;0;0;0;0;0.822752;0.700192;573.64801;574.239563;0.591553;
2017.04.27-10.07.52;7;VE_Female;24;56;VE_OneSector;2;0;Left;0;0;0;0;0.838932;0.611341;576.038757;576.720093;0.681335;
2017.04.27-10.07.54;7;VE_Female;24;57;VE_OneSector;2;1;Right;0;0;0;0;0.805979;0.703885;578.496033;579.584961;1.088928;
2017.04.27-10.07.57;7;VE_Female;24;58;VE_OneSector;1;0;Left;0;0;0;0;0.742439;0.678512;581.432739;582.113953;0.681213;
2017.04.27-10.07.59;7;VE_Female;24;59;VE_OneSector;2;1;Right;0;0;0;0;0.758718;0.765734;583.990601;585.130798;1.140198;
2017.04.27-10.08.03;7;VE_Female;24;60;VE_OneSector;2;1;Right;0;0;0;0;0.861589;0.616504;587.040405;587.722168;0.681763;
2017.04.27-10.08.15;7;VE_Female;24;61;VE_OneSector;2;0;Left;0;0;0;0;0.820017;0.744847;599.684998;600.824707;1.139709;
2017.04.27-10.08.19;7;VE_Female;24;62;VE_OneSector;2;0;Left;0;0;0;0;0.798642;0.678628;603.159058;603.906738;0.747681;
2017.04.27-10.08.21;7;VE_Female;24;63;VE_OneSector;2;0;Left;0;0;0;0;0.764962;0.674862;605.694397;606.588135;0.893738;
2017.04.27-10.08.24;7;VE_Female;24;64;VE_OneSector;2;1;Right;0;0;0;0;0.776705;0.755626;608.434021;608.968079;0.534058;
2017.04.27-10.08.26;7;VE_Female;24;65;VE_OneSector;1;1;Right;0;0;0;0;0.755483;0.720994;610.810608;611.402649;0.592041;
2017.04.27-10.08.29;7;VE_Female;24;66;VE_OneSector;1;1;Right;0;0;0;0;0.852995;0.695175;613.338806;614.017212;0.678406;
2017.04.27-10.08.31;7;VE_Female;24;67;VE_OneSector;1;1;Right;0;0;0;0;0.816135;0.66205;615.859497;616.523743;0.664246;
2017.04.27-10.08.34;7;VE_Female;24;68;VE_OneSector;1;1;Right;0;0;0;0;0.857103;0.746477;618.48468;619.055054;0.570374;
2017.04.27-10.08.36;7;VE_Female;24;69;VE_OneSector;1;1;Right;0;0;0;0;0.834886;0.697476;620.91333;621.556519;0.643188;
2017.04.27-10.08.39;7;VE_Female;24;70;VE_OneSector;2;0;Left;0;0;0;0;0.854295;0.729722;623.533508;624.171204;0.637695;
2017.04.27-10.08.42;7;VE_Female;24;71;VE_OneSector;1;1;Right;0;0;0;0;0.888873;0.779369;626.16925;626.874084;0.704834;
2017.04.27-10.08.44;7;VE_Female;24;72;VE_OneSector;2;1;Right;0;0;0;0;0.73379;0.730668;628.673401;629.37677;0.703369;
2017.04.27-10.08.47;7;VE_Female;24;73;VE_OneSector;1;1;Right;0;0;0;0;0.895196;0.669515;631.27887;631.922668;0.643799;
2017.04.27-10.08.49;7;VE_Female;24;74;VE_OneSector;1;1;Right;0;0;0;0;0.722028;0.720158;633.687195;634.324036;0.636841;
2017.04.27-10.08.52;7;VE_Female;24;75;VE_OneSector;1;1;Right;0;0;0;0;0.786721;0.721439;636.155457;636.8078;0.652344;
2017.04.27-10.08.54;7;VE_Female;24;76;VE_OneSector;1;1;Right;0;0;0;0;0.820975;0.698642;638.70166;639.304688;0.603027;
2017.04.27-10.08.57;7;VE_Female;24;77;VE_OneSector;1;1;Right;0;0;0;0;0.812839;0.787408;641.281982;641.930115;0.648132;
2017.04.27-10.08.59;7;VE_Female;24;78;VE_OneSector;1;1;Right;0;0;0;0;0.771383;0.765722;643.811523;644.442932;0.631409;
2017.04.27-10.09.02;7;VE_Female;24;79;VE_OneSector;1;1;Right;0;0;0;0;0.765224;0.650472;646.21875;646.800415;0.581665;
2017.04.27-10.09.04;7;VE_Female;24;80;VE_OneSector;1;1;Right;0;0;0;0;0.741084;0.714658;648.631165;649.290649;0.659485;
2017.04.27-10.09.07;7;VE_Female;24;81;VE_OneSector;1;1;Right;0;0;0;0;0.728681;0.781524;651.12384;651.729248;0.605408;
2017.04.27-10.09.09;7;VE_Female;24;82;VE_OneSector;1;0;Left;0;0;0;0;0.738258;0.751952;653.591431;654.261963;0.670532;
2017.04.27-10.09.12;7;VE_Female;24;83;VE_OneSector;1;1;Right;0;0;0;0;0.756856;0.621271;655.914673;656.730408;0.815735;
2017.04.27-10.09.14;7;VE_Female;24;84;VE_OneSector;1;1;Right;0;0;0;0;0.749733;0.741813;658.628601;659.600586;0.971985;
2017.04.27-10.09.17;7;VE_Female;24;85;VE_OneSector;1;1;Right;0;0;0;0;0.873064;0.787335;661.633484;662.304321;0.670837;
2017.04.27-10.09.20;7;VE_Female;24;86;VE_OneSector;2;0;Left;0;0;0;0;0.804251;0.775738;664.240906;665.186951;0.946045;
2017.04.27-10.09.23;7;VE_Female;24;87;VE_OneSector;2;1;Right;0;0;0;0;0.796042;0.606201;666.916565;668.156189;1.239624;
2017.04.27-10.09.25;7;VE_Female;24;88;VE_OneSector;2;0;Left;0;0;0;0;0.76075;0.667019;669.922241;671.139282;1.217041;
2017.04.27-10.09.28;7;VE_Female;24;89;VE_OneSector;2;1;Right;0;0;0;0;0.790756;0.77036;673.003845;673.753601;0.749756;
2017.04.27-10.09.31;7;VE_Female;24;90;VE_OneSector;1;0;Left;0;0;0;0;0.821659;0.770287;675.723389;676.449036;0.725647;
2017.04.27-10.09.34;7;VE_Female;24;91;VE_OneSector;2;0;Left;0;0;0;0;0.844169;0.720212;678.333313;679.070374;0.737061;
2017.04.27-10.09.36;7;VE_Female;24;92;VE_OneSector;2;1;Right;0;0;0;0;0.771157;0.726029;680.834412;681.559937;0.725525;
2017.04.27-10.09.39;7;VE_Female;24;93;VE_OneSector;2;0;Left;0;0;0;0;0.765999;0.751213;683.459656;684.178711;0.719055;
2017.04.27-10.09.41;7;VE_Female;24;94;VE_OneSector;2;1;Right;0;0;0;0;0.738484;0.730137;685.949524;686.708862;0.759338;
2017.04.27-10.09.44;7;VE_Female;24;95;VE_OneSector;1;0;Left;0;0;0;0;0.814566;0.64582;688.55188;689.402344;0.850464;
2017.04.27-10.09.47;7;VE_Female;24;96;VE_OneSector;1;1;Right;0;0;0;0;0.886193;0.728416;691.359863;692.093933;0.73407;
2017.04.27-10.09.50;7;VE_Female;24;97;VE_OneSector;1;1;Right;0;0;0;0;0.847484;0.630586;693.924988;694.499512;0.574524;
2017.04.27-10.09.52;7;VE_Female;24;98;VE_OneSector;2;0;Left;0;0;0;0;0.823441;0.736149;696.416199;697.031128;0.614929;
2017.04.27-10.09.54;7;VE_Female;24;99;VE_OneSector;2;0;Left;0;0;0;0;0.797525;0.658138;698.818054;699.678711;0.860657;
2017.04.27-10.09.57;7;VE_Female;24;100;VE_OneSector;1;1;Right;0;0;0;0;0.744282;0.682589;701.456238;702.193665;0.737427;
2017.04.27-10.10.00;7;VE_Female;24;101;VE_OneSector;2;1;Right;0;0;0;0;0.873345;0.614252;704.045837;704.872314;0.826477;
2017.04.27-10.10.02;7;VE_Female;24;102;VE_OneSector;2;0;Left;0;0;0;0;0.890942;0.780529;706.827087;707.711121;0.884033;
2017.04.27-10.10.05;7;VE_Female;24;103;VE_OneSector;2;1;Right;0;0;0;0;0.885296;0.649849;709.541687;710.191101;0.649414;
2017.04.27-10.10.07;7;VE_Female;24;104;VE_OneSector;2;1;Right;0;0;0;0;0.742073;0.620777;711.898254;712.635071;0.736816;
2017.04.27-10.10.10;7;VE_Female;24;105;VE_OneSector;2;1;Right;0;0;0;0;0.896179;0.63805;714.534973;715.198364;0.663391;
2017.04.27-10.10.12;7;VE_Female;24;106;VE_OneSector;2;0;Left;0;0;0;0;0.726087;0.791784;717.047058;717.762024;0.714966;
2017.04.27-10.10.15;7;VE_Female;24;107;VE_OneSector;2;0;Left;0;0;0;0;0.797061;0.756206;719.616028;720.263916;0.647888;
2017.04.27-10.10.18;7;VE_Female;24;108;VE_OneSector;2;1;Right;0;0;0;0;0.859398;0.624049;722.007935;722.67981;0.671875;
2017.04.27-10.10.20;7;VE_Female;24;109;VE_OneSector;1;0;Left;0;0;0;0;0.808029;0.792907;724.690308;725.380005;0.689697;
2017.04.27-10.10.23;7;VE_Female;24;110;VE_OneSector;1;1;Right;0;0;0;0;0.709705;0.659767;727.078247;727.697632;0.619385;
2017.04.27-10.10.25;7;VE_Female;24;111;VE_OneSector;2;0;Left;0;0;0;0;0.70398;0.780047;729.54657;730.182617;0.636047;
2017.04.27-10.10.28;7;VE_Female;24;112;VE_OneSector;2;1;Right;0;0;0;0;0.884301;0.647285;732.037109;732.651367;0.614258;
2017.04.27-10.10.30;7;VE_Female;24;113;VE_OneSector;2;1;Right;1;0;0;0;0.765401;0.749828;734.51709;735.701843;1.184753;
2017.04.27-10.10.33;7;VE_Female;24;114;VE_OneSector;1;1;Right;0;0;0;0;0.843315;0.660665;737.60968;738.313599;0.703918;
2017.04.27-10.10.36;7;VE_Female;24;115;VE_OneSector;2;0;Left;0;0;0;0;0.854155;0.616791;740.174805;740.962708;0.787903;
2017.04.27-10.10.38;7;VE_Female;24;116;VE_OneSector;2;0;Left;1;0;0;0;0.838029;0.744206;742.839539;743.721924;0.882385;
2017.04.27-10.10.41;7;VE_Female;24;117;VE_OneSector;1;0;Left;0;0;0;0;0.814249;0.784887;745.596619;746.391235;0.794617;
2017.04.27-10.10.44;7;VE_Female;24;118;VE_OneSector;1;1;Right;0;0;0;0;0.774136;0.681973;748.143982;748.792297;0.648315;
2017.04.27-10.10.46;7;VE_Female;24;119;VE_OneSector;1;0;Left;0;0;0;0;0.797635;0.679434;750.636047;751.422241;0.786194;
2017.04.27-10.10.49;7;VE_Female;24;120;VE_OneSector;1;0;Left;0;0;0;0;0.800027;0.692349;753.243103;753.853333;0.610229;
2017.04.27-10.11.01;7;VE_Female;24;121;VE_OneSector;1;0;Left;0;0;0;0;0.714972;0.604236;765.508728;766.947815;1.439087;
2017.04.27-10.11.04;7;VE_Female;24;122;VE_OneSector;2;1;Right;0;0;0;0;0.82009;0.647536;768.76825;769.456482;0.688232;
2017.04.27-10.11.07;7;VE_Female;24;123;VE_OneSector;2;1;Left;0;1;0;0;0.811429;0.723551;771.344849;772.293396;0.948547;
2017.04.27-10.11.10;7;VE_Female;24;124;VE_OneSector;2;1;Right;1;0;0;0;0.73296;0.618097;774.58313;775.644592;1.061462;
2017.04.27-10.11.13;7;VE_Female;24;125;VE_OneSector;2;0;Left;0;0;0;0;0.767434;0.769134;777.498718;778.140137;0.641418;
2017.04.27-10.11.15;7;VE_Female;24;126;VE_OneSector;2;1;Right;0;0;0;0;0.794815;0.742509;780.016541;780.72583;0.70929;
2017.04.27-10.11.18;7;VE_Female;24;127;VE_OneSector;1;1;Right;0;0;0;0;0.724494;0.672286;782.494995;783.217224;0.722229;
2017.04.27-10.11.20;7;VE_Female;24;128;VE_OneSector;2;1;Right;0;0;0;0;0.707666;0.62165;784.870605;785.574951;0.704346;
2017.04.27-10.11.23;7;VE_Female;24;129;VE_OneSector;1;1;Right;0;0;0;0;0.835954;0.720878;787.506042;788.824646;1.318604;
2017.04.27-10.11.26;7;VE_Female;24;130;VE_OneSector;2;0;Left;0;0;0;0;0.83264;0.63838;790.74707;791.483398;0.736328;
2017.04.27-10.11.29;7;VE_Female;24;131;VE_OneSector;1;1;Right;0;0;0;0;0.742763;0.641365;793.27063;793.963379;0.692749;
2017.04.27-10.11.31;7;VE_Female;24;132;VE_OneSector;2;0;Left;0;0;0;0;0.728224;0.602039;795.660217;796.453796;0.793579;
2017.04.27-10.11.34;7;VE_Female;24;133;VE_OneSector;2;1;Right;0;0;0;0;0.774288;0.60586;798.233521;799.01178;0.778259;
2017.04.27-10.11.36;7;VE_Female;24;134;VE_OneSector;1;0;Left;0;0;0;0;0.813602;0.717978;800.914795;801.573181;0.658386;
2017.04.27-10.11.39;7;VE_Female;24;135;VE_OneSector;1;1;Right;0;0;0;0;0.874084;0.76411;803.579895;804.194214;0.614319;
2017.04.27-10.11.42;7;VE_Female;24;136;VE_OneSector;1;1;Right;0;0;0;0;0.75688;0.682119;806.003296;806.719116;0.71582;
2017.04.27-10.11.44;7;VE_Female;24;137;VE_OneSector;1;1;Right;0;0;0;0;0.850658;0.700565;808.576843;809.198486;0.621643;
2017.04.27-10.11.47;7;VE_Female;24;138;VE_OneSector;2;0;Left;0;0;0;0;0.78843;0.700443;811.052429;811.823975;0.771545;
2017.04.27-10.11.49;7;VE_Female;24;139;VE_OneSector;1;0;Left;0;0;0;0;0.753279;0.616388;813.509766;814.145874;0.636108;
2017.04.27-10.11.51;7;VE_Female;24;140;VE_OneSector;1;1;Right;0;0;0;0;0.739106;0.63357;815.854919;816.55957;0.704651;
2017.04.27-10.11.54;7;VE_Female;24;141;VE_OneSector;1;0;Left;0;0;0;0;0.772738;0.636525;818.339294;819.127563;0.788269;
2017.04.27-10.11.56;7;VE_Female;24;142;VE_OneSector;1;0;Left;0;0;0;0;0.80358;0.66625;820.948303;821.764465;0.816162;
2017.04.27-10.11.59;7;VE_Female;24;143;VE_OneSector;2;1;Right;0;0;0;0;0.867132;0.641676;823.60675;824.265503;0.658752;
2017.04.27-10.12.02;7;VE_Female;24;144;VE_OneSector;2;0;Left;0;0;0;0;0.828574;0.701914;826.121765;826.869934;0.748169;
2017.04.27-10.12.04;7;VE_Female;24;145;VE_OneSector;1;1;Right;0;0;0;0;0.712647;0.625379;828.555908;829.260986;0.705078;
2017.04.27-10.12.07;7;VE_Female;24;146;VE_OneSector;1;0;Left;0;0;0;0;0.726185;0.682199;831.080811;831.727966;0.647156;
2017.04.27-10.12.09;7;VE_Female;24;147;VE_OneSector;2;1;Right;0;0;0;0;0.77936;0.776012;833.661865;834.37616;0.714294;
2017.04.27-10.12.12;7;VE_Female;24;148;VE_OneSector;1;0;Left;0;0;0;0;0.812143;0.631489;836.173889;836.922241;0.748352;
2017.04.27-10.12.14;7;VE_Female;24;149;VE_OneSector;2;1;Right;0;0;0;0;0.731977;0.683834;838.65448;839.368408;0.713928;
2017.04.27-10.12.17;7;VE_Female;24;150;VE_OneSector;2;1;Right;0;0;0;0;0.869103;0.626429;841.228271;841.926575;0.698303;
2017.04.27-10.12.19;7;VE_Female;24;151;VE_OneSector;2;0;Left;0;0;0;0;0.755647;0.673012;843.663635;844.298706;0.635071;
2017.04.27-10.12.22;7;VE_Female;24;152;VE_OneSector;1;0;Left;0;0;0;0;0.734895;0.690469;846.058655;846.763062;0.704407;
2017.04.27-10.12.24;7;VE_Female;24;153;VE_OneSector;1;1;Right;0;0;0;0;0.806748;0.658663;848.572388;849.276001;0.703613;
2017.04.27-10.12.27;7;VE_Female;24;154;VE_OneSector;2;1;Right;0;0;0;0;0.815873;0.613392;851.051636;851.822693;0.771057;
2017.04.27-10.12.29;7;VE_Female;24;155;VE_OneSector;2;1;Right;0;0;0;0;0.788632;0.728874;853.748413;854.425049;0.676636;
2017.04.27-10.12.32;7;VE_Female;24;156;VE_OneSector;2;0;Left;0;0;0;0;0.725111;0.695846;856.178833;856.937988;0.759155;
2017.04.27-10.12.34;7;VE_Female;24;157;VE_OneSector;1;1;Right;0;0;0;0;0.852452;0.651729;858.781006;859.432312;0.651306;
2017.04.27-10.12.37;7;VE_Female;24;158;VE_OneSector;1;0;Left;0;0;0;0;0.845756;0.618879;861.2547;861.953003;0.698303;
2017.04.27-10.12.39;7;VE_Female;24;159;VE_OneSector;1;1;Right;0;0;0;0;0.822892;0.70737;863.829895;864.449219;0.619324;
2017.04.27-10.12.42;7;VE_Female;24;160;VE_OneSector;1;1;Right;0;0;0;0;0.819266;0.638453;866.287415;866.935547;0.648132;
2017.04.27-10.12.44;7;VE_Female;24;161;VE_OneSector;2;1;Right;0;0;0;0;0.749013;0.644984;868.682617;869.818176;1.135559;
2017.04.27-10.12.47;7;VE_Female;24;162;VE_OneSector;2;0;Left;0;0;0;0;0.758712;0.705008;871.654297;872.296936;0.642639;
2017.04.27-10.12.50;7;VE_Female;24;163;VE_OneSector;1;0;Left;0;0;0;0;0.779971;0.764867;874.240173;875.000671;0.760498;
2017.04.27-10.12.52;7;VE_Female;24;164;VE_OneSector;1;1;Right;0;0;0;0;0.787051;0.707944;876.776489;877.55835;0.78186;
2017.04.27-10.12.55;7;VE_Female;24;165;VE_OneSector;1;1;Right;0;0;0;0;0.765835;0.725431;879.422913;880.249634;0.826721;
2017.04.27-10.12.57;7;VE_Female;24;166;VE_OneSector;1;0;Left;0;0;0;0;0.700397;0.64521;881.925964;882.763794;0.83783;
2017.04.27-10.13.00;7;VE_Female;24;167;VE_OneSector;2;0;Left;0;0;0;0;0.783358;0.675277;884.526978;885.286682;0.759705;
2017.04.27-10.13.03;7;VE_Female;24;168;VE_OneSector;1;1;Right;0;0;0;0;0.756343;0.717801;887.107056;887.812012;0.704956;
2017.04.27-10.13.05;7;VE_Female;24;169;VE_OneSector;2;0;Left;0;0;0;0;0.786758;0.710178;889.659302;890.548584;0.889282;
2017.04.27-10.13.08;7;VE_Female;24;170;VE_OneSector;2;0;Left;0;0;0;0;0.787179;0.749278;892.430359;893.240112;0.809753;
2017.04.27-10.13.11;7;VE_Female;24;171;VE_OneSector;1;0;Left;0;0;0;0;0.783505;0.655129;895.02002;895.741028;0.721008;
2017.04.27-10.13.13;7;VE_Female;24;172;VE_OneSector;2;1;Right;0;0;0;0;0.838237;0.730326;897.630371;898.28772;0.657349;
2017.04.27-10.13.16;7;VE_Female;24;173;VE_OneSector;1;0;Left;0;0;0;0;0.735084;0.771392;900.102478;901.058594;0.956116;
2017.04.27-10.13.18;7;VE_Female;24;174;VE_OneSector;1;1;Right;0;0;0;0;0.731117;0.68829;902.934387;903.661377;0.72699;
2017.04.27-10.13.21;7;VE_Female;24;175;VE_OneSector;2;1;Right;0;0;0;0;0.782803;0.788501;905.583069;906.185974;0.602905;
2017.04.27-10.13.24;7;VE_Female;24;176;VE_OneSector;2;1;Right;0;0;0;0;0.752022;0.681674;907.973206;908.632324;0.659119;
2017.04.27-10.13.26;7;VE_Female;24;177;VE_OneSector;2;0;Left;0;0;0;0;0.798556;0.661318;910.441406;911.06012;0.618713;
2017.04.27-10.13.28;7;VE_Female;24;178;VE_OneSector;2;1;Right;0;0;0;0;0.864995;0.719688;912.987854;913.624878;0.637024;
2017.04.27-10.13.31;7;VE_Female;24;179;VE_OneSector;1;0;Left;0;0;0;0;0.860607;0.652058;915.502075;916.217163;0.715088;
2017.04.27-10.13.34;7;VE_Female;24;180;VE_OneSector;1;1;Right;0;0;0;0;0.850206;0.606793;917.958984;918.674805;0.71582;
2017.04.27-10.13.46;7;VE_Female;24;181;VE_OneSector;2;0;Left;1;0;0;0;0.854381;0.737303;930.652649;931.632141;0.979492;
2017.04.27-10.13.49;7;VE_Female;24;182;VE_OneSector;1;0;Left;1;0;0;0;0.767269;0.712223;933.389954;934.759583;1.369629;
2017.04.27-10.13.52;7;VE_Female;24;183;VE_OneSector;2;1;Right;0;0;0;0;0.798221;0.740056;936.663086;937.417847;0.754761;
2017.04.27-10.13.55;7;VE_Female;24;184;VE_OneSector;1;1;Right;0;0;0;0;0.743477;0.664498;939.227112;940.087646;0.860535;
2017.04.27-10.13.58;7;VE_Female;24;185;VE_OneSector;1;0;Left;0;0;0;0;0.894214;0.786749;942.12146;942.903015;0.781555;
2017.04.27-10.14.00;7;VE_Female;24;186;VE_OneSector;1;0;Left;0;0;0;0;0.887127;0.770983;944.924011;945.684509;0.760498;
2017.04.27-10.14.03;7;VE_Female;24;187;VE_OneSector;1;0;Left;0;0;0;0;0.703906;0.689303;947.375122;948.056213;0.681091;
2017.04.27-10.14.05;7;VE_Female;24;188;VE_OneSector;1;1;Right;0;0;0;0;0.725739;0.762401;949.900024;950.497986;0.597961;
2017.04.27-10.14.08;7;VE_Female;24;189;VE_OneSector;2;1;Right;0;0;0;0;0.849162;0.652132;952.351746;953.10083;0.749084;
2017.04.27-10.14.10;7;VE_Female;24;190;VE_OneSector;1;0;Left;0;0;0;0;0.769436;0.662368;954.909546;955.501526;0.59198;
2017.04.27-10.14.13;7;VE_Female;24;191;VE_OneSector;1;0;Left;0;0;0;0;0.83787;0.704208;957.400513;958.283691;0.883179;
2017.04.27-10.14.16;7;VE_Female;24;192;VE_OneSector;1;1;Right;0;0;0;0;0.799112;0.781951;960.130798;960.831116;0.700317;
2017.04.27-10.14.18;7;VE_Female;24;193;VE_OneSector;1;0;Left;0;0;0;0;0.814792;0.656032;962.67334;963.287842;0.614502;
2017.04.27-10.14.21;7;VE_Female;24;194;VE_OneSector;2;1;Right;0;0;0;0;0.879791;0.639137;965.14209;965.767822;0.625732;
2017.04.27-10.14.23;7;VE_Female;24;195;VE_OneSector;2;0;Left;0;0;0;0;0.837284;0.78175;967.714783;968.403748;0.688965;
2017.04.27-10.14.26;7;VE_Female;24;196;VE_OneSector;1;0;Left;0;0;0;0;0.898883;0.60343;970.212036;970.860413;0.648376;
2017.04.27-10.14.28;7;VE_Female;24;197;VE_OneSector;2;1;Right;0;0;0;0;0.876122;0.626087;972.682434;973.318542;0.636108;
2017.04.27-10.14.31;7;VE_Female;24;198;VE_OneSector;2;0;Left;0;0;0;0;0.829472;0.665346;975.072998;975.686646;0.613647;
2017.04.27-10.14.33;7;VE_Female;24;199;VE_OneSector;1;0;Left;0;0;0;0;0.741249;0.736479;977.507813;978.177673;0.669861;
2017.04.27-10.14.35;7;VE_Female;24;200;VE_OneSector;2;0;Left;0;0;0;0;0.718574;0.730955;979.954529;980.601135;0.646606;
2017.04.27-10.14.38;7;VE_Female;24;201;VE_OneSector;1;1;Right;0;0;0;0;0.732606;0.720017;982.344055;982.94696;0.602905;
2017.04.27-10.14.40;7;VE_Female;24;202;VE_OneSector;2;1;Right;0;0;0;0;0.800461;0.641395;984.744995;985.437805;0.69281;
2017.04.27-10.14.43;7;VE_Female;24;203;VE_OneSector;2;1;Right;0;0;0;0;0.81586;0.625532;987.229553;987.962158;0.732605;
2017.04.27-10.14.45;7;VE_Female;24;204;VE_OneSector;1;0;Left;0;0;0;0;0.734901;0.717447;989.749207;990.335388;0.586182;
2017.04.27-10.14.48;7;VE_Female;24;205;VE_OneSector;1;1;Right;0;0;0;0;0.723188;0.650612;992.055359;992.697937;0.642578;
2017.04.27-10.14.50;7;VE_Female;24;206;VE_OneSector;2;0;Left;0;0;0;0;0.770461;0.629011;994.462952;995.2005;0.737549;
2017.04.27-10.14.52;7;VE_Female;24;207;VE_OneSector;2;0;Left;0;0;0;0;0.779116;0.773632;997.043213;997.70343;0.660217;
2017.04.27-10.14.55;7;VE_Female;24;208;VE_OneSector;2;0;Left;1;0;0;0;0.832786;0.789685;999.634949;1000.41687;0.781921;
2017.04.27-10.14.58;7;VE_Female;24;209;VE_OneSector;2;1;Right;0;0;0;0;0.851238;0.71077;1002.348694;1002.953003;0.604309;
2017.04.27-10.15.00;7;VE_Female;24;210;VE_OneSector;2;0;Left;0;0;0;0;0.737861;0.676247;1004.739502;1005.37677;0.637268;
2017.04.27-10.15.03;7;VE_Female;24;211;VE_OneSector;1;0;Left;0;0;0;0;0.826011;0.798065;1007.354065;1008.068359;0.714294;
2017.04.27-10.15.05;7;VE_Female;24;212;VE_OneSector;1;1;Right;0;0;0;0;0.730341;0.673244;1009.777954;1010.504517;0.726563;
2017.04.27-10.15.08;7;VE_Female;24;213;VE_OneSector;2;1;Right;0;0;0;0;0.809574;0.798425;1012.44043;1013.151489;0.71106;
2017.04.27-10.15.10;7;VE_Female;24;214;VE_OneSector;1;1;Right;0;0;0;0;0.746767;0.642476;1014.87146;1015.486877;0.615417;
2017.04.27-10.15.13;7;VE_Female;24;215;VE_OneSector;2;0;Left;0;0;0;0;0.853471;0.633686;1017.300354;1017.898621;0.598267;
2017.04.27-10.15.15;7;VE_Female;24;216;VE_OneSector;1;1;Right;0;0;0;0;0.803897;0.617554;1019.640869;1020.367493;0.726624;
2017.04.27-10.15.18;7;VE_Female;24;217;VE_OneSector;2;1;Right;0;0;0;0;0.805478;0.641621;1022.154541;1023.293823;1.139282;
2017.04.27-10.15.21;7;VE_Female;24;218;VE_OneSector;1;1;Right;0;0;0;0;0.711963;0.62342;1025.025024;1025.751221;0.726196;
2017.04.27-10.15.23;7;VE_Female;24;219;VE_OneSector;1;1;Right;0;0;0;0;0.885375;0.757964;1027.795776;1028.465576;0.6698;
2017.04.27-10.15.26;7;VE_Female;24;220;VE_OneSector;1;1;Right;0;0;0;0;0.712976;0.620869;1030.130005;1030.766602;0.636597;
2017.04.27-10.15.28;7;VE_Female;24;221;VE_OneSector;2;1;Right;0;0;0;0;0.785696;0.623469;1032.541016;1033.267822;0.726807;
2017.04.27-10.15.31;7;VE_Female;24;222;VE_OneSector;1;1;Right;0;0;0;0;0.843974;0.77611;1035.245605;1035.893433;0.647827;
2017.04.27-10.15.33;7;VE_Female;24;223;VE_OneSector;1;0;Left;0;0;0;0;0.897559;0.615912;1037.769043;1038.496338;0.727295;
2017.04.27-10.15.36;7;VE_Female;24;224;VE_OneSector;2;0;Left;0;0;0;0;0.825321;0.655257;1040.305298;1041.154053;0.848755;
2017.04.27-10.15.39;7;VE_Female;24;225;VE_OneSector;2;0;Left;0;0;0;0;0.861406;0.607154;1042.940674;1043.566772;0.626099;
2017.04.27-10.15.41;7;VE_Female;24;226;VE_OneSector;1;0;Left;0;0;0;0;0.873992;0.743907;1045.558838;1046.202759;0.643921;
2017.04.27-10.15.44;7;VE_Female;24;227;VE_OneSector;2;1;Right;0;0;0;0;0.842814;0.645143;1047.967651;1048.508667;0.541016;
2017.04.27-10.15.46;7;VE_Female;24;228;VE_OneSector;1;0;Left;0;0;0;0;0.84185;0.691623;1050.403564;1051.02832;0.624756;
2017.04.27-10.15.48;7;VE_Female;24;229;VE_OneSector;1;1;Right;0;0;0;0;0.733253;0.760955;1052.805298;1053.431152;0.625854;
2017.04.27-10.15.51;7;VE_Female;24;230;VE_OneSector;1;1;Right;0;0;0;0;0.87893;0.681509;1055.341309;1055.94397;0.602661;
2017.04.27-10.15.53;7;VE_Female;24;231;VE_OneSector;2;0;Left;0;0;0;0;0.87589;0.700827;1057.866089;1058.492065;0.625977;
2017.04.27-10.15.56;7;VE_Female;24;232;VE_OneSector;1;1;Right;0;0;0;0;0.821708;0.724705;1060.368286;1061.049072;0.680786;
2017.04.27-10.15.58;7;VE_Female;24;233;VE_OneSector;1;0;Left;0;0;0;0;0.716327;0.783209;1062.89209;1063.562256;0.670166;
2017.04.27-10.16.01;7;VE_Female;24;234;VE_OneSector;1;0;Left;0;0;0;0;0.706397;0.67994;1065.304077;1066.085815;0.781738;
2017.04.27-10.16.03;7;VE_Female;24;235;VE_OneSector;2;1;Right;0;0;0;0;0.778463;0.680734;1067.839722;1068.488037;0.648315;
2017.04.27-10.16.06;7;VE_Female;24;236;VE_OneSector;2;0;Left;0;0;0;0;0.807236;0.798059;1070.453003;1071.056885;0.603882;
2017.04.27-10.16.08;7;VE_Female;24;237;VE_OneSector;2;0;Left;0;0;0;0;0.765188;0.727335;1072.877197;1073.570313;0.693115;
2017.04.27-10.16.11;7;VE_Female;24;238;VE_OneSector;1;1;Right;0;0;0;0;0.799728;0.791546;1075.480103;1076.077515;0.597412;
2017.04.27-10.16.13;7;VE_Female;24;239;VE_OneSector;2;1;Right;0;0;0;0;0.784207;0.7502;1077.948486;1078.618164;0.669678;
2017.04.27-10.16.16;7;VE_Female;24;240;VE_OneSector;1;0;Left;0;0;0;0;0.848979;0.629066;1080.434082;1081.049072;0.61499;
2017.04.27-10.16.29;7;VE_Female;24;241;VE_OneSector;1;0;Left;1;0;0;0;0.898822;0.626844;1092.978271;1093.778076;0.799805;
2017.04.27-10.16.31;7;VE_Female;24;242;VE_OneSector;2;1;Right;0;0;0;0;0.822929;0.655001;1095.620972;1096.290771;0.6698;
2017.04.27-10.16.34;7;VE_Female;24;243;VE_OneSector;1;1;Right;1;0;0;0;0.803702;0.767138;1098.256836;1099.251343;0.994507;
2017.04.27-10.16.37;7;VE_Female;24;244;VE_OneSector;2;1;Right;0;0;0;0;0.830674;0.633961;1101.106201;1101.754272;0.648071;
2017.04.27-10.16.39;7;VE_Female;24;245;VE_OneSector;1;1;Right;0;0;0;0;0.825681;0.720316;1103.635742;1104.317383;0.681641;
2017.04.27-10.16.42;7;VE_Female;24;246;VE_OneSector;2;0;Left;0;0;0;0;0.885723;0.720328;1106.256714;1106.993408;0.736694;
2017.04.27-10.16.44;7;VE_Female;24;247;VE_OneSector;1;0;Right;0;1;0;0;0.849522;0.707041;1108.880859;1109.639771;0.758911;
2017.04.27-10.16.47;7;VE_Female;24;248;VE_OneSector;2;1;Right;0;0;0;0;0.894281;0.752782;1112.03064;1112.632935;0.602295;
2017.04.27-10.16.50;7;VE_Female;24;249;VE_OneSector;2;0;Left;0;0;0;0;0.768685;0.676406;1114.431152;1115.101196;0.670044;
2017.04.27-10.16.52;7;VE_Female;24;250;VE_OneSector;2;0;Left;0;0;0;0;0.768532;0.673843;1116.830933;1117.479004;0.648071;
2017.04.27-10.16.55;7;VE_Female;24;251;VE_OneSector;2;1;Right;0;0;0;0;0.861156;0.687985;1119.344727;1119.986206;0.641479;
2017.04.27-10.16.57;7;VE_Female;24;252;VE_OneSector;2;0;Left;0;0;0;0;0.86494;0.674392;1121.89209;1122.540405;0.648315;
2017.04.27-10.17.00;7;VE_Female;24;253;VE_OneSector;1;0;Left;0;0;0;0;0.890185;0.618854;1124.383301;1125.093262;0.709961;
2017.04.27-10.17.02;7;VE_Female;24;254;VE_OneSector;1;0;Left;0;0;0;0;0.747493;0.663216;1126.799805;1127.443237;0.643433;
2017.04.27-10.17.05;7;VE_Female;24;255;VE_OneSector;2;0;Left;0;0;0;0;0.730073;0.795624;1129.308838;1130.012329;0.703491;
2017.04.27-10.17.07;7;VE_Female;24;256;VE_OneSector;2;0;Left;0;0;0;0;0.876025;0.661507;1131.921875;1132.704102;0.782227;
2017.04.27-10.17.10;7;VE_Female;24;257;VE_OneSector;1;1;Right;0;0;0;0;0.716987;0.751476;1134.501465;1135.283691;0.782227;
2017.04.27-10.17.13;7;VE_Female;24;258;VE_OneSector;2;1;Right;0;0;0;0;0.819443;0.722434;1137.14978;1137.920532;0.770752;
2017.04.27-10.17.15;7;VE_Female;24;259;VE_OneSector;2;0;Left;0;0;0;0;0.724696;0.708182;1139.70105;1140.421631;0.720581;
2017.04.27-10.17.18;7;VE_Female;24;260;VE_OneSector;2;0;Left;0;0;0;0;0.794076;0.775652;1142.268677;1143.002075;0.733398;
2017.04.27-10.17.20;7;VE_Female;24;261;VE_OneSector;2;0;Left;0;0;0;0;0.765371;0.78316;1144.811279;1145.459106;0.647827;
2017.04.27-10.17.23;7;VE_Female;24;262;VE_OneSector;1;0;Left;0;0;0;0;0.726905;0.796826;1147.279785;1147.971924;0.692139;
2017.04.27-10.17.25;7;VE_Female;24;263;VE_OneSector;1;0;Left;0;0;0;0;0.715381;0.721464;1149.693359;1150.296509;0.603149;
2017.04.27-10.17.28;7;VE_Female;24;264;VE_OneSector;1;0;Left;0;0;0;0;0.84387;0.702176;1152.138428;1152.696411;0.557983;
2017.04.27-10.17.30;7;VE_Female;24;265;VE_OneSector;1;0;Left;0;0;0;0;0.766048;0.752873;1154.528564;1155.210083;0.681519;
2017.04.27-10.17.33;7;VE_Female;24;266;VE_OneSector;2;0;Left;0;0;0;0;0.783126;0.768023;1157.063843;1157.768555;0.704712;
2017.04.27-10.17.35;7;VE_Female;24;267;VE_OneSector;1;1;Right;0;0;0;0;0.799454;0.773864;1159.63269;1160.269531;0.636841;
2017.04.27-10.17.38;7;VE_Female;24;268;VE_OneSector;2;0;Left;0;0;0;0;0.83336;0.77528;1162.180908;1162.850586;0.669678;
2017.04.27-10.17.40;7;VE_Female;24;269;VE_OneSector;1;1;Right;0;0;0;0;0.889196;0.654671;1164.715942;1165.375244;0.659302;
2017.04.27-10.17.43;7;VE_Female;24;270;VE_OneSector;2;1;Right;0;0;0;0;0.897046;0.679006;1167.295776;1168.011841;0.716064;
2017.04.27-10.17.45;7;VE_Female;24;271;VE_OneSector;2;0;Left;0;0;0;0;0.726185;0.671328;1169.741821;1170.389404;0.647583;
2017.04.27-10.17.48;7;VE_Female;24;272;VE_OneSector;2;0;Left;0;0;0;0;0.778719;0.60296;1172.043823;1172.768921;0.725098;
2017.04.27-10.17.50;7;VE_Female;24;273;VE_OneSector;2;0;Left;0;0;0;0;0.76943;0.662679;1174.533447;1175.225586;0.692139;
2017.04.27-10.17.52;7;VE_Female;24;274;VE_OneSector;1;0;Left;0;0;0;0;0.7983;0.759087;1177.035156;1177.751343;0.716187;
2017.04.27-10.17.55;7;VE_Female;24;275;VE_OneSector;1;0;Left;0;0;0;0;0.721802;0.712418;1179.471558;1180.163696;0.692139;
2017.04.27-10.17.57;7;VE_Female;24;276;VE_OneSector;1;0;Left;0;0;0;0;0.729322;0.692074;1181.862671;1182.477051;0.61438;
2017.04.27-10.18.00;7;VE_Female;24;277;VE_OneSector;2;1;Right;0;0;0;0;0.730836;0.756108;1184.240845;1184.811279;0.570435;
2017.04.27-10.18.02;7;VE_Female;24;278;VE_OneSector;2;1;Right;1;0;0;0;0.862255;0.648885;1186.652832;1187.513672;0.86084;
2017.04.27-10.18.05;7;VE_Female;24;279;VE_OneSector;2;1;Right;0;0;0;0;0.71449;0.713236;1189.233643;1189.949951;0.716309;
2017.04.27-10.18.07;7;VE_Female;24;280;VE_OneSector;2;0;Left;0;0;0;0;0.792746;0.673281;1191.713623;1192.506714;0.793091;
2017.04.27-10.18.10;7;VE_Female;24;281;VE_OneSector;2;1;Right;0;0;0;0;0.811948;0.744237;1194.372437;1195.03186;0.659424;
2017.04.27-10.18.12;7;VE_Female;24;282;VE_OneSector;2;0;Left;0;0;0;0;0.734944;0.625367;1196.718018;1197.454834;0.736816;
2017.04.27-10.18.15;7;VE_Female;24;283;VE_OneSector;2;0;Left;0;0;0;0;0.759377;0.63249;1199.141235;1199.957153;0.815918;
2017.04.27-10.18.17;7;VE_Female;24;284;VE_OneSector;2;1;Right;0;0;0;0;0.759755;0.72609;1201.699707;1202.616455;0.916748;
2017.04.27-10.18.20;7;VE_Female;24;285;VE_OneSector;2;1;Right;0;0;0;0;0.790744;0.691421;1204.369019;1205.0625;0.693481;
2017.04.27-10.18.22;7;VE_Female;24;286;VE_OneSector;1;0;Left;0;0;0;0;0.758132;0.626814;1206.771118;1207.43042;0.659302;
2017.04.27-10.18.25;7;VE_Female;24;287;VE_OneSector;1;0;Left;0;0;0;0;0.863555;0.79646;1209.400757;1210.089722;0.688965;
2017.04.27-10.18.27;7;VE_Female;24;288;VE_OneSector;2;1;Right;0;0;0;0;0.72934;0.603821;1211.707886;1212.468262;0.760376;
2017.04.27-10.18.30;7;VE_Female;24;289;VE_OneSector;2;1;Right;0;0;0;0;0.809665;0.742113;1214.360596;1215.00354;0.642944;
2017.04.27-10.18.32;7;VE_Female;24;290;VE_OneSector;2;1;Right;0;0;0;0;0.794272;0.677847;1216.769409;1217.387817;0.618408;
2017.04.27-10.18.35;7;VE_Female;24;291;VE_OneSector;1;1;Right;0;0;0;0;0.811051;0.723984;1219.23645;1219.85022;0.61377;
2017.04.27-10.18.37;7;VE_Female;24;292;VE_OneSector;2;1;Right;0;0;0;0;0.733686;0.658626;1221.570068;1222.140137;0.570068;
2017.04.27-10.18.39;7;VE_Female;24;293;VE_OneSector;2;0;Left;0;0;0;0;0.800601;0.745817;1224.017212;1224.642578;0.625366;
2017.04.27-10.18.42;7;VE_Female;24;294;VE_OneSector;2;0;Left;0;0;0;0;0.851524;0.714408;1226.530518;1227.149414;0.618896;
2017.04.27-10.18.44;7;VE_Female;24;295;VE_OneSector;2;1;Right;0;0;0;0;0.787869;0.751506;1229.020996;1229.624512;0.603516;
2017.04.27-10.18.47;7;VE_Female;24;296;VE_OneSector;1;1;Right;0;0;0;0;0.763173;0.666494;1231.389404;1232.015259;0.625854;
2017.04.27-10.18.49;7;VE_Female;24;297;VE_OneSector;1;1;Right;0;0;0;0;0.709888;0.682138;1233.769043;1234.416504;0.647461;
2017.04.27-10.18.52;7;VE_Female;24;298;VE_OneSector;2;1;Right;0;0;0;0;0.708753;0.608765;1236.059326;1236.684692;0.625366;
2017.04.27-10.18.54;7;VE_Female;24;299;VE_OneSector;1;0;Left;0;0;0;0;0.806949;0.658028;1238.516846;1239.275757;0.758911;
2017.04.27-10.18.57;7;VE_Female;24;300;VE_OneSector;2;0;Left;0;0;0;0;0.791397;0.652229;1241.052002;1241.699707;0.647705;
2017.04.27-10.19.09;7;VE_Female;24;301;VE_OneSector;2;1;Right;1;0;0;0;0.723341;0.685745;1253.438232;1254.213379;0.775146;
2017.04.27-10.19.12;7;VE_Female;24;302;VE_OneSector;2;0;Left;0;0;0;0;0.740529;0.794531;1256.108887;1256.884155;0.775269;
2017.04.27-10.19.14;7;VE_Female;24;303;VE_OneSector;2;0;Left;0;0;0;0;0.733192;0.690146;1258.694458;1259.370239;0.675781;
2017.04.27-10.19.17;7;VE_Female;24;304;VE_OneSector;1;0;Left;0;0;0;0;0.80015;0.714481;1261.225342;1262.119263;0.893921;
2017.04.27-10.19.20;7;VE_Female;24;305;VE_OneSector;1;0;Left;0;0;0;0;0.891205;0.671395;1264.040039;1264.699219;0.65918;
2017.04.27-10.19.22;7;VE_Female;24;306;VE_OneSector;2;1;Right;0;0;0;0;0.742115;0.691617;1266.487427;1267.157959;0.670532;
2017.04.27-10.19.24;7;VE_Female;24;307;VE_OneSector;1;0;Left;0;0;0;0;0.708448;0.787024;1268.956177;1269.694824;0.738647;
2017.04.27-10.19.27;7;VE_Female;24;308;VE_OneSector;1;1;Right;0;0;0;0;0.804422;0.650703;1271.435547;1272.149536;0.713989;
2017.04.27-10.19.29;7;VE_Female;24;309;VE_OneSector;1;1;Right;0;0;0;0;0.753163;0.758922;1273.964355;1275.211304;1.246948;
2017.04.27-10.19.33;7;VE_Female;24;310;VE_OneSector;2;1;Right;0;0;0;0;0.754488;0.731285;1277.098511;1277.751221;0.65271;
2017.04.27-10.19.35;7;VE_Female;24;311;VE_OneSector;2;1;Right;0;0;0;0;0.776522;0.605402;1279.455078;1280.102661;0.647583;
2017.04.27-10.19.38;7;VE_Female;24;312;VE_OneSector;1;0;Left;0;0;0;0;0.877422;0.782202;1282.158691;1282.821899;0.663208;
2017.04.27-10.19.40;7;VE_Female;24;313;VE_OneSector;2;1;Right;0;0;0;0;0.763399;0.698221;1284.671509;1285.353027;0.681519;
2017.04.27-10.19.43;7;VE_Female;24;314;VE_OneSector;1;0;Left;0;0;0;0;0.889325;0.781127;1287.363647;1288.038208;0.674561;
2017.04.27-10.19.45;7;VE_Female;24;315;VE_OneSector;1;0;Left;0;0;0;0;0.708173;0.744609;1289.780518;1290.469604;0.689087;
2017.04.27-10.19.48;7;VE_Female;24;316;VE_OneSector;2;0;Left;0;0;0;0;0.775545;0.779095;1292.322632;1292.997803;0.675171;
2017.04.27-10.19.50;7;VE_Female;24;317;VE_OneSector;2;0;Left;0;0;0;0;0.715503;0.69429;1294.735718;1295.450684;0.714966;
2017.04.27-10.19.53;7;VE_Female;24;318;VE_OneSector;2;0;Left;0;0;0;0;0.753999;0.770043;1297.249756;1297.954102;0.704346;
2017.04.27-10.19.55;7;VE_Female;24;319;VE_OneSector;2;1;Right;0;0;0;0;0.826115;0.771538;1299.901367;1300.578369;0.677002;
2017.04.27-10.19.58;7;VE_Female;24;320;VE_OneSector;2;1;Right;0;0;0;0;0.763405;0.68533;1302.386719;1303.03479;0.648071;
2017.04.27-10.20.00;7;VE_Female;24;321;VE_OneSector;2;0;Left;0;0;0;0;0.767556;0.632185;1304.795776;1305.469727;0.67395;
2017.04.27-10.20.03;7;VE_Female;24;322;VE_OneSector;2;1;Right;0;0;0;0;0.876604;0.713279;1307.390625;1308.038818;0.648193;
2017.04.27-10.20.05;7;VE_Female;24;323;VE_OneSector;1;1;Right;0;0;0;0;0.830009;0.645674;1309.875977;1310.518921;0.642944;
2017.04.27-10.20.08;7;VE_Female;24;324;VE_OneSector;1;0;Left;0;0;0;0;0.838804;0.743693;1312.484985;1313.299561;0.814575;
2017.04.27-10.20.11;7;VE_Female;24;325;VE_OneSector;1;1;Right;0;0;0;0;0.867058;0.70206;1315.142944;1315.824707;0.681763;
2017.04.27-10.20.13;7;VE_Female;24;326;VE_OneSector;1;1;Right;0;0;0;0;0.730909;0.7374;1317.601807;1318.272461;0.670654;
2017.04.27-10.20.16;7;VE_Female;24;327;VE_OneSector;2;0;Left;0;0;0;0;0.82147;0.744078;1320.199219;1320.863525;0.664307;
2017.04.27-10.20.18;7;VE_Female;24;328;VE_OneSector;2;1;Right;0;0;0;0;0.757753;0.620783;1322.584351;1323.293701;0.709351;
2017.04.27-10.20.21;7;VE_Female;24;329;VE_OneSector;2;1;Right;0;0;0;0;0.775979;0.624128;1325.076172;1325.834473;0.758301;
2017.04.27-10.20.23;7;VE_Female;24;330;VE_OneSector;2;1;Right;0;0;0;0;0.761415;0.705313;1327.666016;1328.381714;0.715698;
2017.04.27-10.20.26;7;VE_Female;24;331;VE_OneSector;1;1;Right;0;0;0;0;0.729072;0.686367;1330.134155;1330.842529;0.708374;
2017.04.27-10.20.28;7;VE_Female;24;332;VE_OneSector;1;0;Left;0;0;0;0;0.859478;0.632051;1332.687012;1333.881836;1.194824;
2017.04.27-10.20.31;7;VE_Female;24;333;VE_OneSector;1;0;Left;0;0;0;0;0.895758;0.67369;1335.782837;1336.436646;0.653809;
2017.04.27-10.20.34;7;VE_Female;24;334;VE_OneSector;1;1;Right;0;0;0;0;0.80831;0.641231;1338.21106;1338.837769;0.626709;
2017.04.27-10.20.36;7;VE_Female;24;335;VE_OneSector;1;0;Left;0;0;0;0;0.733338;0.759777;1340.692627;1341.328247;0.63562;
2017.04.27-10.20.39;7;VE_Female;24;336;VE_OneSector;1;1;Right;0;0;0;0;0.891382;0.766753;1343.322144;1343.908813;0.58667;
2017.04.27-10.20.41;7;VE_Female;24;337;VE_OneSector;2;1;Right;0;0;0;0;0.892248;0.706125;1345.863159;1346.488647;0.625488;
2017.04.27-10.20.44;7;VE_Female;24;338;VE_OneSector;2;0;Left;0;0;0;0;0.73249;0.755718;1348.309204;1349.023682;0.714478;
2017.04.27-10.20.46;7;VE_Female;24;339;VE_OneSector;1;1;Right;0;0;0;0;0.891754;0.744084;1351.016235;1351.625366;0.609131;
2017.04.27-10.20.49;7;VE_Female;24;340;VE_OneSector;2;0;Left;0;0;0;0;0.834092;0.71298;1353.524658;1354.104492;0.579834;
2017.04.27-10.20.51;7;VE_Female;24;341;VE_OneSector;1;0;Left;0;0;0;0;0.720783;0.781884;1355.94165;1356.618652;0.677002;
2017.04.27-10.20.54;7;VE_Female;24;342;VE_OneSector;1;0;Left;0;0;0;0;0.840556;0.67065;1358.47644;1359.130859;0.654419;
2017.04.27-10.20.56;7;VE_Female;24;343;VE_OneSector;2;0;Left;0;0;0;0;0.763729;0.736662;1360.935303;1361.589966;0.654663;
2017.04.27-10.20.59;7;VE_Female;24;344;VE_OneSector;2;1;Right;0;0;0;0;0.726435;0.68265;1363.264526;1363.845093;0.580566;
2017.04.27-10.21.01;7;VE_Female;24;345;VE_OneSector;1;0;Left;0;0;0;0;0.851158;0.791504;1365.822388;1366.459351;0.636963;
2017.04.27-10.21.04;7;VE_Female;24;346;VE_OneSector;1;1;Right;0;0;0;0;0.709796;0.644227;1368.134277;1368.693604;0.559326;
2017.04.27-10.21.06;7;VE_Female;24;347;VE_OneSector;2;1;Right;0;0;0;0;0.835661;0.777459;1370.636353;1371.75354;1.117188;
2017.04.27-10.21.09;7;VE_Female;24;348;VE_OneSector;1;1;Right;1;0;0;0;0.890448;0.636512;1373.674561;1374.936646;1.262085;
2017.04.27-10.21.13;7;VE_Female;24;349;VE_OneSector;2;1;Right;0;0;0;0;0.892596;0.680587;1376.985962;1377.628174;0.642212;
2017.04.27-10.21.15;7;VE_Female;24;350;VE_OneSector;2;0;Left;0;0;0;0;0.81323;0.796008;1379.681641;1380.289795;0.608154;
2017.04.27-10.21.18;7;VE_Female;24;351;VE_OneSector;1;1;Right;0;0;0;0;0.745881;0.673995;1382.05188;1382.654297;0.602417;
2017.04.27-10.21.20;7;VE_Female;24;352;VE_OneSector;1;1;Right;0;0;0;0;0.756337;0.709146;1384.519531;1385.201538;0.682007;
2017.04.27-10.21.23;7;VE_Female;24;353;VE_OneSector;2;1;Right;0;0;0;0;0.818784;0.674838;1387.067139;1387.647583;0.580444;
2017.04.27-10.21.25;7;VE_Female;24;354;VE_OneSector;1;0;Left;0;0;0;0;0.744557;0.73184;1389.478638;1390.137939;0.659302;
2017.04.27-10.21.27;7;VE_Female;24;355;VE_OneSector;2;0;Left;0;0;0;0;0.70968;0.62638;1391.80127;1392.397583;0.596313;
2017.04.27-10.21.30;7;VE_Female;24;356;VE_OneSector;1;1;Right;0;0;0;0;0.887561;0.633955;1394.227539;1394.833984;0.606445;
2017.04.27-10.21.32;7;VE_Female;24;357;VE_OneSector;2;0;Left;0;0;0;0;0.792868;0.70502;1396.73877;1397.397461;0.658691;
2017.04.27-10.21.35;7;VE_Female;24;358;VE_OneSector;1;1;Right;0;0;0;0;0.843187;0.76892;1399.318359;1399.911011;0.592651;
2017.04.27-10.21.37;7;VE_Female;24;359;VE_OneSector;1;1;Right;0;0;0;0;0.744307;0.652297;1401.674805;1402.390137;0.715332;
2017.04.27-10.21.40;7;VE_Female;24;360;VE_OneSector;2;1;Right;0;0;0;0;0.805741;0.768175;1404.334229;1404.904053;0.569824;
