Date;Subject's Number;Gender;Age;Trial Number;Spawn Method;Salient Side;Button Colour;Hand Used;Wrong Start Detected;Wrong Hand Used;Reaction Time Too Fast;Reaction Time Too Slow;Shape Spawn Delay;Stimulus Delay;Stimuli Start Time;Button Press Time;Reaction Time;
2017.04.26-11.34.32;6;VE_Male;22;1;VE_OneSector;1;1;Right;0;0;0;0;0.755281;0.778985;309.405701;310.065643;0.659943;
2017.04.26-11.34.34;6;VE_Male;22;2;VE_OneSector;2;0;Left;0;0;0;0;0.776925;0.605469;311.819397;312.38913;0.569733;
2017.04.26-11.34.36;6;VE_Male;22;3;VE_OneSector;2;0;Left;0;0;0;0;0.752339;0.681472;314.221252;314.891602;0.670349;
2017.04.26-11.34.39;6;VE_Male;22;4;VE_OneSector;1;1;Right;0;0;0;0;0.888263;0.76071;316.990875;317.638245;0.647369;
2017.04.26-11.34.42;6;VE_Male;22;5;VE_OneSector;2;0;Left;0;0;0;0;0.806577;0.786535;319.593536;320.274567;0.68103;
2017.04.26-11.34.44;6;VE_Male;22;6;VE_OneSector;2;0;Left;0;0;0;0;0.714112;0.669698;322.051453;322.743347;0.691895;
2017.04.26-11.34.47;6;VE_Male;22;7;VE_OneSector;1;0;Left;0;0;0;0;0.852428;0.78684;324.776093;325.503052;0.726959;
2017.04.26-11.34.50;6;VE_Male;22;8;VE_OneSector;1;1;Right;0;0;0;0;0.833995;0.655849;327.378967;328.194427;0.81546;
2017.04.26-11.34.52;6;VE_Male;22;9;VE_OneSector;2;0;Left;0;0;0;0;0.770925;0.744542;330.182678;330.774841;0.592163;
2017.04.26-11.34.55;6;VE_Male;22;10;VE_OneSector;1;0;Left;0;0;0;0;0.802536;0.668679;332.729462;333.320648;0.591187;
2017.04.26-11.34.57;6;VE_Male;22;11;VE_OneSector;1;1;Right;0;0;0;0;0.727992;0.735783;335.220032;335.856232;0.6362;
2017.04.26-11.35.00;6;VE_Male;22;12;VE_OneSector;2;1;Right;0;0;0;0;0.750276;0.690829;337.689423;338.358337;0.668915;
2017.04.26-11.35.03;6;VE_Male;22;13;VE_OneSector;2;1;Right;0;0;0;0;0.83773;0.620203;340.257599;340.899841;0.642242;
2017.04.26-11.35.05;6;VE_Male;22;14;VE_OneSector;1;0;Left;0;0;0;0;0.709436;0.670095;342.714844;343.374237;0.659393;
2017.04.26-11.35.08;6;VE_Male;22;15;VE_OneSector;2;1;Right;0;0;0;0;0.750679;0.735539;345.340729;345.903809;0.56308;
2017.04.26-11.35.10;6;VE_Male;22;16;VE_OneSector;2;0;Left;0;0;0;0;0.864708;0.776489;347.921387;348.591187;0.6698;
2017.04.26-11.35.13;6;VE_Male;22;17;VE_OneSector;1;1;Right;0;0;0;0;0.76711;0.717057;350.489288;351.186951;0.697662;
2017.04.26-11.35.15;6;VE_Male;22;18;VE_OneSector;2;1;Right;0;0;0;0;0.729011;0.78421;353.13678;353.840057;0.703278;
2017.04.26-11.35.18;6;VE_Male;22;19;VE_OneSector;2;0;Left;0;0;0;0;0.875323;0.642164;355.784027;356.381531;0.597504;
2017.04.26-11.35.21;6;VE_Male;22;20;VE_OneSector;2;0;Left;0;0;0;0;0.844328;0.778747;358.420258;359.101868;0.68161;
2017.04.26-11.35.23;6;VE_Male;22;21;VE_OneSector;1;0;Left;0;0;0;0;0.714881;0.69993;360.938782;361.581787;0.643005;
2017.04.26-11.35.26;6;VE_Male;22;22;VE_OneSector;1;1;Right;0;0;0;0;0.807413;0.788861;363.680664;364.447113;0.766449;
2017.04.26-11.35.29;6;VE_Male;22;23;VE_OneSector;2;0;Left;0;0;0;0;0.864965;0.785565;366.597778;367.234344;0.636566;
2017.04.26-11.35.31;6;VE_Male;22;24;VE_OneSector;1;0;Left;0;0;0;0;0.82064;0.74362;369.189056;369.825409;0.636353;
2017.04.26-11.35.34;6;VE_Male;22;25;VE_OneSector;1;1;Right;0;0;0;0;0.857573;0.620008;371.679932;372.409943;0.730011;
2017.04.26-11.35.36;6;VE_Male;22;26;VE_OneSector;1;0;Left;0;0;0;0;0.767733;0.754454;374.303925;375.086548;0.782623;
2017.04.26-11.35.39;6;VE_Male;22;27;VE_OneSector;2;0;Left;1;0;0;0;0.715851;0.79444;377.078613;377.766815;0.688202;
2017.04.26-11.35.42;6;VE_Male;22;28;VE_OneSector;1;0;Left;0;0;0;0;0.814597;0.722178;379.960754;380.683014;0.72226;
2017.04.26-11.35.45;6;VE_Male;22;29;VE_OneSector;2;1;Right;0;0;0;0;0.817386;0.739799;382.727295;383.531586;0.804291;
2017.04.26-11.35.48;6;VE_Male;22;30;VE_OneSector;2;1;Right;0;0;0;0;0.735035;0.668996;385.530823;386.245026;0.714203;
2017.04.26-11.35.50;6;VE_Male;22;31;VE_OneSector;2;0;Left;0;0;0;0;0.88244;0.621339;388.110626;389.132324;1.021698;
2017.04.26-11.35.53;6;VE_Male;22;32;VE_OneSector;1;0;Left;0;0;0;0;0.761599;0.795581;391.204163;391.796875;0.592712;
2017.04.26-11.35.56;6;VE_Male;22;33;VE_OneSector;1;1;Right;0;0;0;0;0.887268;0.758141;393.93045;394.633698;0.703247;
2017.04.26-11.35.59;6;VE_Male;22;34;VE_OneSector;1;1;Right;0;0;0;0;0.761324;0.663057;396.443085;397.106445;0.663361;
2017.04.26-11.36.01;6;VE_Male;22;35;VE_OneSector;1;1;Right;0;0;0;0;0.702368;0.767644;398.967682;399.604095;0.636414;
2017.04.26-11.36.04;6;VE_Male;22;36;VE_OneSector;1;0;Left;0;0;0;0;0.736518;0.700064;401.497437;402.106079;0.608643;
2017.04.26-11.36.06;6;VE_Male;22;37;VE_OneSector;2;1;Right;0;0;0;0;0.855834;0.635182;404.027527;404.630615;0.603088;
2017.04.26-11.36.09;6;VE_Male;22;38;VE_OneSector;2;0;Left;0;0;0;0;0.850566;0.634779;406.53656;407.200623;0.664063;
2017.04.26-11.36.12;6;VE_Male;22;39;VE_OneSector;2;1;Right;0;0;0;0;0.821512;0.708542;409.299927;409.896484;0.596558;
2017.04.26-11.36.14;6;VE_Male;22;40;VE_OneSector;2;1;Right;0;0;0;0;0.778664;0.651949;411.758331;412.384338;0.626007;
2017.04.26-11.36.17;6;VE_Male;22;41;VE_OneSector;2;1;Right;0;0;0;0;0.83242;0.617426;414.371948;414.997406;0.625458;
2017.04.26-11.36.19;6;VE_Male;22;42;VE_OneSector;2;1;Right;0;0;0;0;0.783663;0.674905;416.889282;417.51059;0.621307;
2017.04.26-11.36.22;6;VE_Male;22;43;VE_OneSector;2;1;Right;0;0;0;0;0.818918;0.71807;419.481598;420.079712;0.598114;
2017.04.26-11.36.24;6;VE_Male;22;44;VE_OneSector;1;0;Left;0;0;0;0;0.716791;0.772625;421.912598;422.608551;0.695953;
2017.04.26-11.36.27;6;VE_Male;22;45;VE_OneSector;1;1;Right;0;0;0;0;0.872063;0.662691;424.49115;425.095764;0.604614;
2017.04.26-11.36.29;6;VE_Male;22;46;VE_OneSector;2;0;Left;0;0;0;0;0.743489;0.691733;426.993958;427.664185;0.670227;
2017.04.26-11.36.32;6;VE_Male;22;47;VE_OneSector;2;0;Left;0;0;0;0;0.831846;0.694089;429.686707;430.388977;0.702271;
2017.04.26-11.36.35;6;VE_Male;22;48;VE_OneSector;2;1;Right;0;0;0;0;0.794137;0.713559;432.41098;433.160065;0.749084;
2017.04.26-11.36.37;6;VE_Male;22;49;VE_OneSector;2;1;Right;0;0;0;0;0.800497;0.66512;435.069977;435.751038;0.681061;
2017.04.26-11.36.40;6;VE_Male;22;50;VE_OneSector;2;1;Right;0;0;0;0;0.739869;0.636146;437.550079;438.275757;0.725677;
2017.04.26-11.36.42;6;VE_Male;22;51;VE_OneSector;1;1;Right;0;0;0;0;0.780764;0.783282;440.346588;440.989502;0.642914;
2017.04.26-11.36.45;6;VE_Male;22;52;VE_OneSector;2;0;Left;1;0;0;0;0.893365;0.681301;443.111725;443.938812;0.827087;
2017.04.26-11.36.48;6;VE_Male;22;53;VE_OneSector;2;0;Left;0;0;0;0;0.839177;0.68019;446.077362;446.880554;0.803192;
2017.04.26-11.36.51;6;VE_Male;22;54;VE_OneSector;2;0;Left;0;0;0;0;0.834581;0.726615;448.930939;449.579224;0.648285;
2017.04.26-11.36.54;6;VE_Male;22;55;VE_OneSector;2;1;Right;0;0;0;0;0.794345;0.606153;451.399841;452.026337;0.626495;
2017.04.26-11.36.56;6;VE_Male;22;56;VE_OneSector;1;0;Left;0;0;0;0;0.761586;0.662484;453.935364;454.577515;0.642151;
2017.04.26-11.36.59;6;VE_Male;22;57;VE_OneSector;2;0;Left;0;0;0;0;0.830235;0.749699;456.682892;457.369507;0.686615;
2017.04.26-11.37.02;6;VE_Male;22;58;VE_OneSector;2;0;Left;0;0;0;0;0.766329;0.674172;459.308258;459.989044;0.680786;
2017.04.26-11.37.04;6;VE_Male;22;59;VE_OneSector;1;0;Left;0;0;0;0;0.834452;0.682064;462.049103;462.686188;0.637085;
2017.04.26-11.37.07;6;VE_Male;22;60;VE_OneSector;1;0;Left;0;0;0;0;0.835405;0.648811;464.602539;465.239777;0.637238;
2017.04.26-11.37.20;6;VE_Male;22;61;VE_OneSector;2;1;Right;0;0;0;0;0.861522;0.726786;477.40802;478.253662;0.845642;
2017.04.26-11.37.22;6;VE_Male;22;62;VE_OneSector;1;1;Right;0;0;0;0;0.77582;0.707443;480.144043;480.843445;0.699402;
2017.04.26-11.37.25;6;VE_Male;22;63;VE_OneSector;2;0;Left;0;0;0;0;0.721162;0.65417;482.576447;483.289795;0.713348;
2017.04.26-11.37.28;6;VE_Male;22;64;VE_OneSector;2;1;Right;0;0;0;0;0.865831;0.662062;485.271637;485.993835;0.722198;
2017.04.26-11.37.30;6;VE_Male;22;65;VE_OneSector;1;1;Right;0;0;0;0;0.891589;0.7009;487.992676;488.676636;0.68396;
2017.04.26-11.37.33;6;VE_Male;22;66;VE_OneSector;2;0;Left;0;0;0;0;0.830668;0.797626;490.740814;491.387787;0.646973;
2017.04.26-11.37.36;6;VE_Male;22;67;VE_OneSector;1;0;Left;0;0;0;0;0.757759;0.714481;493.325531;493.984467;0.658936;
2017.04.26-11.37.38;6;VE_Male;22;68;VE_OneSector;2;0;Left;0;0;0;0;0.743355;0.779101;495.984406;496.661041;0.676636;
2017.04.26-11.37.41;6;VE_Male;22;69;VE_OneSector;1;0;Left;0;0;0;0;0.774691;0.622834;498.480713;499.206757;0.726044;
2017.04.26-11.37.43;6;VE_Male;22;70;VE_OneSector;1;1;Right;0;0;0;0;0.850475;0.683493;501.105957;501.804443;0.698486;
2017.04.26-11.37.46;6;VE_Male;22;71;VE_OneSector;1;0;Left;1;0;0;0;0.755715;0.62881;503.524017;504.267395;0.743378;
2017.04.26-11.37.48;6;VE_Male;22;72;VE_OneSector;1;1;Right;0;0;0;0;0.722925;0.756871;506.278931;506.903778;0.624847;
2017.04.26-11.37.51;6;VE_Male;22;73;VE_OneSector;2;0;Left;0;0;0;0;0.885791;0.729704;508.970734;509.618835;0.648102;
2017.04.26-11.37.54;6;VE_Male;22;74;VE_OneSector;2;0;Left;0;0;0;0;0.731758;0.696396;511.496063;512.1875;0.691437;
2017.04.26-11.37.56;6;VE_Male;22;75;VE_OneSector;1;1;Right;0;0;0;0;0.859728;0.761821;514.242859;514.857849;0.61499;
2017.04.26-11.37.59;6;VE_Male;22;76;VE_OneSector;2;1;Right;0;0;0;0;0.848924;0.657375;516.834229;517.630554;0.796326;
2017.04.26-11.38.02;6;VE_Male;22;77;VE_OneSector;1;1;Right;0;0;0;0;0.745528;0.769958;519.671204;520.45343;0.782227;
2017.04.26-11.38.05;6;VE_Male;22;78;VE_OneSector;2;1;Right;0;0;0;0;0.773031;0.785278;522.619812;523.323792;0.703979;
2017.04.26-11.38.08;6;VE_Male;22;79;VE_OneSector;1;0;Left;0;0;0;0;0.772658;0.701987;525.316528;526.272583;0.956055;
2017.04.26-11.38.13;6;VE_Male;22;80;VE_OneSector;2;0;Left;0;0;0;0;0.78019;0.672732;530.590393;531.298706;0.708313;
2017.04.26-11.38.16;6;VE_Male;22;81;VE_OneSector;2;1;Right;0;0;0;0;0.845299;0.628358;533.219299;533.879211;0.659912;
2017.04.26-11.38.18;6;VE_Male;22;82;VE_OneSector;1;0;Left;0;0;0;0;0.899737;0.74163;535.877686;536.576355;0.698669;
2017.04.26-11.38.21;6;VE_Male;22;83;VE_OneSector;2;0;Left;0;0;0;0;0.780624;0.68663;538.402588;539.095459;0.692871;
2017.04.26-11.38.23;6;VE_Male;22;84;VE_OneSector;2;1;Right;0;0;0;0;0.81503;0.750102;541.138916;541.920471;0.781555;
2017.04.26-11.38.26;6;VE_Male;22;85;VE_OneSector;2;0;Left;0;0;0;0;0.872143;0.751012;543.953796;544.613037;0.659241;
2017.04.26-11.38.29;6;VE_Male;22;86;VE_OneSector;1;1;Right;0;0;0;0;0.889264;0.624555;546.567444;547.506165;0.938721;
2017.04.26-11.38.32;6;VE_Male;22;87;VE_OneSector;2;0;Left;0;0;0;0;0.777902;0.626881;549.437927;550.040588;0.602661;
2017.04.26-11.38.34;6;VE_Male;22;88;VE_OneSector;2;0;Left;0;0;0;0;0.716187;0.61673;551.907166;552.577271;0.670105;
2017.04.26-11.38.37;6;VE_Male;22;89;VE_OneSector;1;0;Left;0;0;0;0;0.733833;0.770342;554.610413;555.335815;0.725403;
2017.04.26-11.38.40;6;VE_Male;22;90;VE_OneSector;2;0;Left;0;0;0;0;0.795962;0.785723;557.42511;558.139526;0.714417;
2017.04.26-11.38.43;6;VE_Male;22;91;VE_OneSector;1;1;Right;0;0;0;0;0.891998;0.732713;560.318054;561.043762;0.725708;
2017.04.26-11.38.45;6;VE_Male;22;92;VE_OneSector;1;0;Left;0;0;0;0;0.735871;0.604962;562.831177;563.602661;0.771484;
2017.04.26-11.38.48;6;VE_Male;22;93;VE_OneSector;2;0;Left;0;0;0;0;0.783859;0.730107;565.601746;566.215149;0.613403;
2017.04.26-11.38.50;6;VE_Male;22;94;VE_OneSector;1;0;Left;0;0;0;0;0.77615;0.694357;568.181152;568.856262;0.67511;
2017.04.26-11.38.53;6;VE_Male;22;95;VE_OneSector;2;1;Right;0;0;0;0;0.7086;0.737919;570.811279;571.514038;0.702759;
2017.04.26-11.38.56;6;VE_Male;22;96;VE_OneSector;1;1;Right;0;0;0;0;0.840739;0.677206;573.502991;574.197083;0.694092;
2017.04.26-11.38.58;6;VE_Male;22;97;VE_OneSector;1;0;Left;0;0;0;0;0.846385;0.710392;576.178406;576.932007;0.753601;
2017.04.26-11.39.01;6;VE_Male;22;98;VE_OneSector;2;0;Left;0;0;0;0;0.71308;0.762304;578.852966;579.574219;0.721252;
2017.04.26-11.39.04;6;VE_Male;22;99;VE_OneSector;2;0;Left;0;0;0;0;0.896625;0.72512;581.674316;582.349854;0.675537;
2017.04.26-11.39.07;6;VE_Male;22;100;VE_OneSector;1;1;Right;0;0;0;0;0.736891;0.650935;584.25415;584.872375;0.618225;
2017.04.26-11.39.09;6;VE_Male;22;101;VE_OneSector;2;0;Left;0;0;0;0;0.841288;0.652602;586.767517;587.375732;0.608215;
2017.04.26-11.39.12;6;VE_Male;22;102;VE_OneSector;1;1;Right;0;0;0;0;0.841966;0.76895;589.44873;590.190735;0.742004;
2017.04.26-11.39.14;6;VE_Male;22;103;VE_OneSector;2;1;Right;0;0;0;0;0.833171;0.750768;592.218811;592.967224;0.748413;
2017.04.26-11.39.17;6;VE_Male;22;104;VE_OneSector;1;0;Left;0;0;0;0;0.894903;0.623725;594.967407;595.536255;0.568848;
2017.04.26-11.39.20;6;VE_Male;22;105;VE_OneSector;1;0;Left;0;0;0;0;0.809159;0.784497;597.547485;598.151245;0.60376;
2017.04.26-11.39.22;6;VE_Male;22;106;VE_OneSector;1;0;Left;0;0;0;0;0.77496;0.686276;600.087585;600.713379;0.625793;
2017.04.26-11.39.25;6;VE_Male;22;107;VE_OneSector;2;1;Right;0;0;0;0;0.828538;0.670144;602.630859;603.490662;0.859802;
2017.04.26-11.39.28;6;VE_Male;22;108;VE_OneSector;2;1;Right;0;0;0;0;0.774776;0.798224;605.567749;606.293152;0.725403;
2017.04.26-11.39.30;6;VE_Male;22;109;VE_OneSector;2;1;Right;0;0;0;0;0.736268;0.645119;608.091736;608.778198;0.686462;
2017.04.26-11.39.33;6;VE_Male;22;110;VE_OneSector;2;1;Right;0;0;0;0;0.726191;0.703842;610.59375;611.27594;0.68219;
2017.04.26-11.39.35;6;VE_Male;22;111;VE_OneSector;1;1;Right;0;0;0;0;0.751253;0.762358;613.219299;613.844482;0.625183;
2017.04.26-11.39.38;6;VE_Male;22;112;VE_OneSector;1;1;Right;0;0;0;0;0.850993;0.707132;615.804382;616.436768;0.632385;
2017.04.26-11.39.41;6;VE_Male;22;113;VE_OneSector;2;0;Left;0;0;0;0;0.779623;0.709885;618.358032;619.0625;0.704468;
2017.04.26-11.39.43;6;VE_Male;22;114;VE_OneSector;2;0;Left;0;0;0;0;0.736726;0.65378;620.928467;621.597351;0.668884;
2017.04.26-11.39.46;6;VE_Male;22;115;VE_OneSector;1;0;Left;0;0;0;0;0.853026;0.755339;623.62915;624.267212;0.638062;
2017.04.26-11.39.48;6;VE_Male;22;116;VE_OneSector;2;0;Left;0;0;0;0;0.837468;0.638258;626.176331;626.914673;0.738342;
2017.04.26-11.39.51;6;VE_Male;22;117;VE_OneSector;1;0;Left;0;0;0;0;0.891906;0.61551;628.964111;629.617065;0.652954;
2017.04.26-11.39.54;6;VE_Male;22;118;VE_OneSector;2;1;Right;0;0;0;0;0.899591;0.63581;631.639832;632.321106;0.681274;
2017.04.26-11.39.56;6;VE_Male;22;119;VE_OneSector;2;0;Left;0;0;0;0;0.793771;0.650856;634.164307;634.789795;0.625488;
2017.04.26-11.39.59;6;VE_Male;22;120;VE_OneSector;2;1;Right;0;0;0;0;0.712574;0.659493;636.543457;637.17981;0.636353;
2017.04.26-11.40.11;6;VE_Male;22;121;VE_OneSector;2;1;Right;0;0;0;0;0.846507;0.785058;649.152771;649.811096;0.658325;
2017.04.26-11.40.14;6;VE_Male;22;122;VE_OneSector;1;0;Left;0;0;0;0;0.784756;0.642213;651.676392;652.407837;0.731445;
2017.04.26-11.40.17;6;VE_Male;22;123;VE_OneSector;2;1;Right;0;0;0;0;0.866619;0.749504;654.5354;655.757751;1.222351;
2017.04.26-11.40.20;6;VE_Male;22;124;VE_OneSector;1;0;Left;0;0;0;0;0.744142;0.64377;657.708374;658.344849;0.636475;
2017.04.26-11.40.23;6;VE_Male;22;125;VE_OneSector;1;1;Right;0;0;0;0;0.862529;0.652889;660.328003;661.115601;0.787598;
2017.04.26-11.40.25;6;VE_Male;22;126;VE_OneSector;1;0;Left;0;0;0;0;0.864165;0.782873;663.19342;663.81189;0.618469;
2017.04.26-11.40.28;6;VE_Male;22;127;VE_OneSector;2;1;Right;0;0;0;0;0.82288;0.675698;665.767944;666.43219;0.664246;
2017.04.26-11.40.31;6;VE_Male;22;128;VE_OneSector;2;1;Right;0;0;0;0;0.71446;0.694144;668.343384;669.024048;0.680664;
2017.04.26-11.40.33;6;VE_Male;22;129;VE_OneSector;2;0;Left;0;0;0;0;0.829777;0.689737;670.961182;671.593628;0.632446;
2017.04.26-11.40.40;6;VE_Male;22;130;VE_OneSector;2;0;Left;0;0;0;0;0.736683;0.710215;677.826721;678.519409;0.692688;
2017.04.26-11.40.43;6;VE_Male;22;131;VE_OneSector;1;1;Right;0;0;0;0;0.897095;0.60268;680.500671;681.081665;0.580994;
2017.04.26-11.40.45;6;VE_Male;22;132;VE_OneSector;2;0;Left;0;0;0;0;0.745259;0.768712;683.020813;683.70166;0.680847;
2017.04.26-11.40.48;6;VE_Male;22;133;VE_OneSector;2;0;Left;0;0;0;0;0.733741;0.627619;685.545288;686.126221;0.580933;
2017.04.26-11.40.50;6;VE_Male;22;134;VE_OneSector;1;0;Left;0;0;0;0;0.753157;0.644282;687.991516;688.572327;0.580811;
2017.04.26-11.40.53;6;VE_Male;22;135;VE_OneSector;1;1;Right;0;0;0;0;0.831986;0.677541;690.548523;691.174133;0.62561;
2017.04.26-11.40.55;6;VE_Male;22;136;VE_OneSector;2;1;Right;0;0;0;0;0.722718;0.705661;693.033386;693.731567;0.698181;
2017.04.26-11.40.58;6;VE_Male;22;137;VE_OneSector;2;0;Left;0;0;0;0;0.880651;0.684915;695.720947;696.38031;0.659363;
2017.04.26-11.41.01;6;VE_Male;22;138;VE_OneSector;1;1;Right;0;0;0;0;0.84138;0.797675;698.602295;699.328064;0.725769;
2017.04.26-11.41.04;6;VE_Male;22;139;VE_OneSector;2;0;Left;0;0;0;0;0.703485;0.646181;701.284668;701.908691;0.624023;
2017.04.26-11.41.06;6;VE_Male;22;140;VE_OneSector;2;1;Right;0;0;0;0;0.722492;0.648268;703.729126;704.316467;0.587341;
2017.04.26-11.41.08;6;VE_Male;22;141;VE_OneSector;2;1;Right;0;0;0;0;0.722401;0.791314;706.246338;706.957703;0.711365;
2017.04.26-11.41.11;6;VE_Male;22;142;VE_OneSector;2;1;Right;0;0;0;0;0.731086;0.600568;708.71051;709.414063;0.703552;
2017.04.26-11.41.14;6;VE_Male;22;143;VE_OneSector;2;1;Right;1;0;0;0;0.745741;0.678323;711.429871;712.162476;0.732605;
2017.04.26-11.41.16;6;VE_Male;22;144;VE_OneSector;1;0;Left;0;0;0;0;0.834666;0.669881;714.106506;714.764709;0.658203;
2017.04.26-11.41.19;6;VE_Male;22;145;VE_OneSector;2;1;Right;0;0;0;0;0.88161;0.612824;716.830933;717.546204;0.715271;
2017.04.26-11.41.22;6;VE_Male;22;146;VE_OneSector;1;1;Right;0;0;0;0;0.778976;0.725736;719.47821;720.148865;0.670654;
2017.04.26-11.41.24;6;VE_Male;22;147;VE_OneSector;2;0;Left;0;0;0;0;0.776089;0.792541;722.148743;722.833923;0.685181;
2017.04.26-11.41.27;6;VE_Male;22;148;VE_OneSector;1;0;Left;0;0;0;0;0.788784;0.79892;724.951904;725.666748;0.714844;
2017.04.26-11.41.30;6;VE_Male;22;149;VE_OneSector;2;0;Left;0;0;0;0;0.776583;0.776824;727.800781;728.427734;0.626953;
2017.04.26-11.41.33;6;VE_Male;22;150;VE_OneSector;1;1;Right;0;0;0;0;0.793692;0.713504;730.4375;731.145813;0.708313;
2017.04.26-11.41.35;6;VE_Male;22;151;VE_OneSector;1;1;Right;0;0;0;0;0.820072;0.681216;733.127747;733.887634;0.759888;
2017.04.26-11.41.38;6;VE_Male;22;152;VE_OneSector;2;1;Right;0;0;0;0;0.77886;0.64388;735.853882;736.61377;0.759888;
2017.04.26-11.41.41;6;VE_Male;22;153;VE_OneSector;1;1;Right;0;0;0;0;0.846361;0.696963;738.759521;739.406372;0.646851;
2017.04.26-11.41.44;6;VE_Male;22;154;VE_OneSector;1;1;Right;0;0;0;0;0.860845;0.796796;741.52887;742.114258;0.585388;
2017.04.26-11.41.46;6;VE_Male;22;155;VE_OneSector;2;1;Right;0;0;0;0;0.736427;0.735563;744.009033;744.678589;0.669556;
2017.04.26-11.41.49;6;VE_Male;22;156;VE_OneSector;2;0;Left;0;0;0;0;0.888336;0.618348;746.655823;747.359497;0.703674;
2017.04.26-11.41.52;6;VE_Male;22;157;VE_OneSector;2;1;Right;0;0;0;0;0.775649;0.798267;749.503418;750.174072;0.670654;
2017.04.26-11.41.54;6;VE_Male;22;158;VE_OneSector;2;1;Right;0;0;0;0;0.767977;0.726096;752.218201;752.899658;0.681458;
2017.04.26-11.41.57;6;VE_Male;22;159;VE_OneSector;2;1;Right;0;0;0;0;0.842119;0.670632;754.921753;755.65863;0.736877;
2017.04.26-11.42.00;6;VE_Male;22;160;VE_OneSector;1;0;Left;0;0;0;0;0.715113;0.76599;757.52832;758.148987;0.620667;
2017.04.26-11.42.02;6;VE_Male;22;161;VE_OneSector;2;0;Left;0;0;0;0;0.71988;0.742058;760.069702;760.762817;0.693115;
2017.04.26-11.42.05;6;VE_Male;22;162;VE_OneSector;1;0;Left;0;0;0;0;0.829606;0.794488;762.862549;763.621887;0.759338;
2017.04.26-11.42.08;6;VE_Male;22;163;VE_OneSector;2;1;Right;0;0;0;0;0.737281;0.750298;765.655579;766.415039;0.75946;
2017.04.26-11.42.11;6;VE_Male;22;164;VE_OneSector;2;0;Left;0;0;1;0;0.796573;0.785534;768.503967;768.950928;0.44696;
2017.04.26-11.42.13;6;VE_Male;22;165;VE_OneSector;2;1;Right;0;0;0;0;0.730189;0.651003;770.771851;771.464111;0.692261;
2017.04.26-11.42.15;6;VE_Male;22;166;VE_OneSector;2;0;Left;0;0;0;0;0.712189;0.662612;773.240723;774.335266;1.094543;
2017.04.26-11.42.19;6;VE_Male;22;167;VE_OneSector;1;0;Left;0;0;0;0;0.730293;0.612256;776.300903;776.937622;0.636719;
2017.04.26-11.42.21;6;VE_Male;22;168;VE_OneSector;1;0;Left;1;0;0;0;0.834507;0.655788;779.02594;779.775024;0.749084;
2017.04.26-11.42.24;6;VE_Male;22;169;VE_OneSector;2;1;Right;1;0;0;0;0.778396;0.734098;782.05481;783.237793;1.182983;
2017.04.26-11.42.28;6;VE_Male;22;170;VE_OneSector;2;0;Left;0;0;0;0;0.859154;0.783709;785.416748;786.064026;0.647278;
2017.04.26-11.42.30;6;VE_Male;22;171;VE_OneSector;1;1;Right;0;0;0;0;0.8627;0.693045;788.007751;788.767639;0.759888;
2017.04.26-11.42.33;6;VE_Male;22;172;VE_OneSector;1;0;Left;0;0;0;0;0.720185;0.660659;790.64447;791.31366;0.669189;
2017.04.26-11.42.35;6;VE_Male;22;173;VE_OneSector;2;0;Left;0;0;0;0;0.782046;0.711649;793.269531;793.849854;0.580322;
2017.04.26-11.42.38;6;VE_Male;22;174;VE_OneSector;2;0;Left;0;0;0;0;0.715845;0.628578;795.63739;796.485291;0.8479;
2017.04.26-11.42.43;6;VE_Male;22;175;VE_OneSector;1;1;Right;0;0;0;0;0.734254;0.653011;800.34967;801.1203;0.77063;
2017.04.26-11.42.45;6;VE_Male;22;176;VE_OneSector;2;1;Right;0;0;0;0;0.759334;0.614106;802.886169;803.601257;0.715088;
2017.04.26-11.42.48;6;VE_Male;22;177;VE_OneSector;1;0;Left;0;0;0;0;0.829374;0.640315;805.454712;806.114319;0.659607;
2017.04.26-11.42.50;6;VE_Male;22;178;VE_OneSector;2;0;Left;0;0;0;0;0.754598;0.710605;807.979309;808.627686;0.648376;
2017.04.26-11.42.53;6;VE_Male;22;179;VE_OneSector;2;0;Left;0;0;0;0;0.727943;0.601349;810.359314;810.951782;0.592468;
2017.04.26-11.42.55;6;VE_Male;22;180;VE_OneSector;1;1;Right;0;0;0;0;0.897125;0.685189;813.1297;813.811157;0.681458;
2017.04.26-11.43.08;6;VE_Male;22;181;VE_OneSector;2;1;Right;0;0;0;0;0.804318;0.738066;825.775635;826.533691;0.758057;
2017.04.26-11.43.11;6;VE_Male;22;182;VE_OneSector;1;1;Right;0;0;0;0;0.899689;0.610755;828.456116;829.10321;0.647095;
2017.04.26-11.43.13;6;VE_Male;22;183;VE_OneSector;1;1;Right;0;0;0;0;0.834922;0.721073;831.057739;831.750488;0.692749;
2017.04.26-11.43.16;6;VE_Male;22;184;VE_OneSector;2;1;Right;0;0;0;0;0.743171;0.623023;833.548706;834.151917;0.60321;
2017.04.26-11.43.18;6;VE_Male;22;185;VE_OneSector;2;0;Left;0;0;0;0;0.811533;0.609198;835.99585;836.710571;0.714722;
2017.04.26-11.43.21;6;VE_Male;22;186;VE_OneSector;2;1;Right;0;0;0;0;0.752333;0.602564;838.54248;839.211365;0.668884;
2017.04.26-11.43.23;6;VE_Male;22;187;VE_OneSector;1;1;Right;0;0;0;0;0.879565;0.694015;841.156189;841.848206;0.692017;
2017.04.26-11.43.26;6;VE_Male;22;188;VE_OneSector;2;0;Left;0;0;0;0;0.796567;0.781829;843.8927;844.484192;0.591492;
2017.04.26-11.43.29;6;VE_Male;22;189;VE_OneSector;2;0;Left;0;0;0;0;0.801352;0.669356;846.406677;847.120728;0.71405;
2017.04.26-11.43.31;6;VE_Male;22;190;VE_OneSector;2;1;Right;0;0;0;0;0.815714;0.677163;849.142517;849.813599;0.671082;
2017.04.26-11.43.34;6;VE_Male;22;191;VE_OneSector;2;0;Left;0;0;0;0;0.744441;0.725858;851.712219;852.382507;0.670288;
2017.04.26-11.43.37;6;VE_Male;22;192;VE_OneSector;1;0;Left;0;0;0;0;0.870836;0.745878;854.460022;855.185303;0.725281;
2017.04.26-11.43.40;6;VE_Male;22;193;VE_OneSector;2;0;Left;0;0;0;0;0.794839;0.770489;857.519836;858.178345;0.658508;
2017.04.26-11.43.42;6;VE_Male;22;194;VE_OneSector;2;1;Right;0;0;0;0;0.719971;0.768242;860.200317;860.893127;0.69281;
2017.04.26-11.43.45;6;VE_Male;22;195;VE_OneSector;1;0;Left;0;0;0;0;0.795334;0.771093;862.95929;863.640869;0.68158;
2017.04.26-11.43.48;6;VE_Male;22;196;VE_OneSector;2;0;Left;0;0;0;0;0.718958;0.754534;865.596375;866.24469;0.648315;
2017.04.26-11.43.50;6;VE_Male;22;197;VE_OneSector;1;1;Right;0;0;0;0;0.70874;0.625886;868.063843;868.879761;0.815918;
2017.04.26-11.43.53;6;VE_Male;22;198;VE_OneSector;2;0;Left;0;0;0;0;0.847185;0.777068;871.024475;871.683411;0.658936;
2017.04.26-11.43.56;6;VE_Male;22;199;VE_OneSector;1;0;Left;0;0;0;0;0.70622;0.758043;873.582275;874.442383;0.860107;
2017.04.26-11.43.59;6;VE_Male;22;200;VE_OneSector;1;0;Left;0;0;0;0;0.858385;0.727238;876.519165;877.18988;0.670715;
2017.04.26-11.44.01;6;VE_Male;22;201;VE_OneSector;2;0;Left;0;0;0;0;0.78052;0.635163;879.201294;879.827576;0.626282;
2017.04.26-11.44.04;6;VE_Male;22;202;VE_OneSector;1;1;Right;0;0;0;0;0.756398;0.79751;881.826477;882.507507;0.68103;
2017.04.26-11.44.07;6;VE_Male;22;203;VE_OneSector;2;0;Left;0;0;0;0;0.884289;0.613868;884.399475;885.143738;0.744263;
2017.04.26-11.44.09;6;VE_Male;22;204;VE_OneSector;1;1;Right;1;0;0;0;0.795987;0.688504;887.098267;887.925903;0.827637;
2017.04.26-11.44.12;6;VE_Male;22;205;VE_OneSector;1;1;Right;0;0;0;0;0.793338;0.709269;889.912781;890.627502;0.714722;
2017.04.26-11.44.15;6;VE_Male;22;206;VE_OneSector;1;0;Left;0;0;0;0;0.808597;0.740989;892.671692;893.257996;0.586304;
2017.04.26-11.44.17;6;VE_Male;22;207;VE_OneSector;1;1;Right;0;0;0;0;0.894928;0.689547;895.22998;895.87738;0.6474;
2017.04.26-11.44.20;6;VE_Male;22;208;VE_OneSector;1;0;Left;0;0;0;0;0.85313;0.792938;897.882324;898.540039;0.657715;
2017.04.26-11.44.23;6;VE_Male;22;209;VE_OneSector;2;1;Right;0;0;0;0;0.701044;0.695468;900.322876;901.127991;0.805115;
2017.04.26-11.44.25;6;VE_Male;22;210;VE_OneSector;1;0;Left;0;0;0;0;0.791733;0.761522;903.08252;903.785461;0.702942;
2017.04.26-11.44.28;6;VE_Male;22;211;VE_OneSector;1;0;Left;0;0;0;0;0.886718;0.784906;905.889832;906.544189;0.654358;
2017.04.26-11.44.31;6;VE_Male;22;212;VE_OneSector;1;0;Left;0;0;0;0;0.790597;0.7502;908.522156;909.426636;0.90448;
2017.04.26-11.44.34;6;VE_Male;22;213;VE_OneSector;2;1;Right;0;0;0;0;0.853227;0.602362;911.247375;911.840027;0.592651;
2017.04.26-11.44.36;6;VE_Male;22;214;VE_OneSector;2;0;Left;0;0;0;0;0.745705;0.680697;913.660706;914.241821;0.581116;
2017.04.26-11.44.38;6;VE_Male;22;215;VE_OneSector;2;0;Left;1;0;0;0;0.816459;0.773559;916.273865;917.190063;0.916199;
2017.04.26-11.44.41;6;VE_Male;22;216;VE_OneSector;1;0;Left;0;0;0;0;0.833641;0.65005;919.234131;919.982361;0.74823;
2017.04.26-11.44.44;6;VE_Male;22;217;VE_OneSector;1;0;Left;0;0;0;0;0.820139;0.624885;921.881042;922.589294;0.708252;
2017.04.26-11.44.47;6;VE_Male;22;218;VE_OneSector;2;1;Right;0;0;0;0;0.787362;0.612671;924.404968;925.03064;0.625671;
2017.04.26-11.44.49;6;VE_Male;22;219;VE_OneSector;1;1;Right;1;0;0;0;0.874145;0.627985;926.962891;927.847595;0.884705;
2017.04.26-11.44.52;6;VE_Male;22;220;VE_OneSector;2;0;Left;0;0;0;0;0.896973;0.787329;930.090759;930.805664;0.714905;
2017.04.26-11.44.55;6;VE_Male;22;221;VE_OneSector;2;0;Left;0;0;0;0;0.817759;0.769286;932.737183;933.441101;0.703918;
2017.04.26-11.44.58;6;VE_Male;22;222;VE_OneSector;2;1;Right;0;0;0;0;0.735505;0.789203;935.474487;936.155334;0.680847;
2017.04.26-11.45.00;6;VE_Male;22;223;VE_OneSector;2;1;Right;0;0;0;0;0.707971;0.644484;938.009766;939.249512;1.239746;
2017.04.26-11.45.04;6;VE_Male;22;224;VE_OneSector;1;0;Left;0;0;0;0;0.809732;0.686923;941.29364;941.863098;0.569458;
2017.04.26-11.45.06;6;VE_Male;22;225;VE_OneSector;1;1;Right;0;0;0;0;0.732765;0.678146;943.695618;944.56665;0.871033;
2017.04.26-11.45.09;6;VE_Male;22;226;VE_OneSector;1;1;Right;0;0;0;0;0.735902;0.7846;946.454285;947.091675;0.63739;
2017.04.26-11.45.11;6;VE_Male;22;227;VE_OneSector;2;1;Right;0;0;0;0;0.849358;0.668178;949.079956;949.761108;0.681152;
2017.04.26-11.45.14;6;VE_Male;22;228;VE_OneSector;1;0;Left;0;0;0;0;0.740547;0.728837;951.750183;952.554443;0.80426;
2017.04.26-11.45.17;6;VE_Male;22;229;VE_OneSector;1;1;Right;0;0;0;0;0.74753;0.655385;954.587097;955.368835;0.781738;
2017.04.26-11.45.20;6;VE_Male;22;230;VE_OneSector;1;1;Right;0;0;0;0;0.886261;0.740776;957.479553;958.195923;0.71637;
2017.04.26-11.45.22;6;VE_Male;22;231;VE_OneSector;2;0;Left;0;0;0;0;0.737892;0.718015;960.116455;960.875977;0.759521;
2017.04.26-11.45.25;6;VE_Male;22;232;VE_OneSector;1;1;Right;0;0;0;0;0.822471;0.773125;963.065186;963.791016;0.72583;
2017.04.26-11.45.28;6;VE_Male;22;233;VE_OneSector;1;1;Right;0;0;0;0;0.765145;0.691244;965.745728;966.527771;0.782043;
2017.04.26-11.45.31;6;VE_Male;22;234;VE_OneSector;1;0;Left;0;0;0;0;0.861241;0.792199;968.695679;969.464783;0.769104;
2017.04.26-11.45.34;6;VE_Male;22;235;VE_OneSector;1;1;Right;0;0;0;0;0.746388;0.611768;971.306946;972.123901;0.816956;
2017.04.26-11.45.36;6;VE_Male;22;236;VE_OneSector;1;0;Left;0;0;0;0;0.778024;0.784936;974.200439;974.826965;0.626526;
2017.04.26-11.45.39;6;VE_Male;22;237;VE_OneSector;1;1;Right;0;0;0;0;0.834391;0.687289;976.79248;977.484741;0.692261;
2017.04.26-11.45.42;6;VE_Male;22;238;VE_OneSector;1;0;Left;0;0;0;0;0.737458;0.690933;979.350891;980.087524;0.736633;
2017.04.26-11.45.44;6;VE_Male;22;239;VE_OneSector;2;0;Right;0;1;0;0;0.805863;0.791064;982.187378;982.76886;0.581482;
2017.04.26-11.45.49;6;VE_Male;22;240;VE_OneSector;1;0;Left;0;0;0;0;0.744166;0.659487;986.621948;987.504211;0.882263;
2017.04.26-11.46.02;6;VE_Male;22;241;VE_OneSector;2;0;Left;0;0;0;0;0.774752;0.681417;999.579224;1000.350464;0.77124;
2017.04.26-11.46.05;6;VE_Male;22;242;VE_OneSector;1;1;Right;0;0;0;0;0.818497;0.631611;1002.270447;1002.946106;0.675659;
2017.04.26-11.46.07;6;VE_Male;22;243;VE_OneSector;1;0;Left;0;0;0;0;0.830528;0.746312;1004.984924;1005.723572;0.738647;
2017.04.26-11.46.10;6;VE_Male;22;244;VE_OneSector;2;1;Right;0;0;0;0;0.897333;0.647078;1007.790344;1008.481567;0.691223;
2017.04.26-11.46.13;6;VE_Male;22;245;VE_OneSector;2;1;Right;0;0;0;0;0.801431;0.672848;1010.537354;1011.307617;0.770264;
2017.04.26-11.46.16;6;VE_Male;22;246;VE_OneSector;1;0;Left;0;0;0;0;0.859868;0.676449;1013.284668;1013.977905;0.693237;
2017.04.26-11.46.18;6;VE_Male;22;247;VE_OneSector;1;0;Left;0;0;0;0;0.742793;0.641798;1015.842285;1016.591248;0.748962;
2017.04.26-11.46.21;6;VE_Male;22;248;VE_OneSector;2;0;Left;0;0;0;0;0.878393;0.778094;1018.792297;1019.651489;0.859192;
2017.04.26-11.46.24;6;VE_Male;22;249;VE_OneSector;1;0;Left;0;0;0;0;0.750307;0.647139;1021.417908;1022.075378;0.657471;
2017.04.26-11.46.26;6;VE_Male;22;250;VE_OneSector;2;1;Right;0;0;0;0;0.894055;0.78023;1024.321289;1025.014648;0.693359;
2017.04.26-11.46.29;6;VE_Male;22;251;VE_OneSector;1;0;Left;0;0;0;0;0.898297;0.740605;1027.069214;1027.805908;0.736694;
2017.04.26-11.46.32;6;VE_Male;22;252;VE_OneSector;1;0;Left;0;0;0;0;0.817667;0.687973;1029.861938;1030.453247;0.591309;
2017.04.26-11.46.35;6;VE_Male;22;253;VE_OneSector;2;1;Right;0;0;0;0;0.702991;0.601172;1032.408081;1033.145386;0.737305;
2017.04.26-11.46.37;6;VE_Male;22;254;VE_OneSector;1;0;Left;0;0;0;0;0.85548;0.615326;1035.066528;1035.836548;0.77002;
2017.04.26-11.46.40;6;VE_Male;22;255;VE_OneSector;2;1;Right;0;0;0;0;0.710846;0.629652;1037.712524;1038.494873;0.782349;
2017.04.26-11.46.43;6;VE_Male;22;256;VE_OneSector;1;0;Left;0;0;0;0;0.759944;0.642262;1040.411377;1041.054565;0.643188;
2017.04.26-11.46.45;6;VE_Male;22;257;VE_OneSector;1;1;Right;0;0;0;0;0.811783;0.768163;1043.164307;1043.9021;0.737793;
2017.04.26-11.46.48;6;VE_Male;22;258;VE_OneSector;1;1;Right;0;0;0;0;0.805527;0.796698;1045.937744;1046.812744;0.875;
2017.04.26-11.46.51;6;VE_Male;22;259;VE_OneSector;1;1;Right;0;0;0;0;0.87749;0.644691;1048.893677;1049.698242;0.804565;
2017.04.26-11.46.54;6;VE_Male;22;260;VE_OneSector;1;1;Right;0;0;0;0;0.889465;0.761571;1051.820068;1052.534912;0.714844;
2017.04.26-11.46.57;6;VE_Male;22;261;VE_OneSector;2;0;Left;0;0;0;0;0.724683;0.642634;1054.367188;1055.048706;0.681519;
2017.04.26-11.46.59;6;VE_Male;22;262;VE_OneSector;1;0;Left;0;0;0;0;0.75754;0.706851;1056.991333;1057.707397;0.716064;
2017.04.26-11.47.02;6;VE_Male;22;263;VE_OneSector;1;1;Right;0;0;0;0;0.803433;0.695303;1059.671509;1060.410278;0.73877;
2017.04.26-11.47.05;6;VE_Male;22;264;VE_OneSector;2;0;Left;0;0;0;0;0.754903;0.646583;1062.330444;1063.078613;0.748169;
2017.04.26-11.47.07;6;VE_Male;22;265;VE_OneSector;2;0;Left;0;0;0;0;0.810398;0.605457;1065.022217;1065.737671;0.715454;
2017.04.26-11.47.10;6;VE_Male;22;266;VE_OneSector;1;0;Left;0;0;0;0;0.701807;0.720908;1067.624512;1068.440918;0.816406;
2017.04.26-11.47.13;6;VE_Male;22;267;VE_OneSector;2;1;Right;0;0;0;0;0.827128;0.689883;1070.474243;1071.233398;0.759155;
2017.04.26-11.47.15;6;VE_Male;22;268;VE_OneSector;1;0;Left;0;0;0;0;0.894415;0.603076;1073.176514;1073.846436;0.669922;
2017.04.26-11.47.18;6;VE_Male;22;269;VE_OneSector;2;1;Right;0;0;0;0;0.78334;0.748839;1075.930664;1076.62915;0.698486;
2017.04.26-11.47.21;6;VE_Male;22;270;VE_OneSector;2;1;Right;0;0;0;0;0.83057;0.631532;1078.571899;1079.348877;0.776978;
2017.04.26-11.47.24;6;VE_Male;22;271;VE_OneSector;1;1;Right;0;0;0;0;0.845207;0.760668;1081.432495;1082.163086;0.730591;
2017.04.26-11.47.26;6;VE_Male;22;272;VE_OneSector;2;1;Right;0;0;0;0;0.860582;0.666891;1084.157715;1084.861694;0.703979;
2017.04.26-11.47.29;6;VE_Male;22;273;VE_OneSector;2;0;Left;0;0;0;0;0.72862;0.701279;1086.737183;1087.418945;0.681763;
2017.04.26-11.47.32;6;VE_Male;22;274;VE_OneSector;2;0;Left;0;0;0;0;0.763015;0.673995;1089.385864;1090.077637;0.691772;
2017.04.26-11.47.34;6;VE_Male;22;275;VE_OneSector;2;0;Left;0;0;0;0;0.737501;0.688711;1091.944092;1092.658936;0.714844;
2017.04.26-11.47.37;6;VE_Male;22;276;VE_OneSector;1;0;Left;0;0;0;0;0.845457;0.62895;1094.657715;1095.371826;0.714111;
2017.04.26-11.47.40;6;VE_Male;22;277;VE_OneSector;1;1;Right;0;0;0;0;0.727058;0.652638;1097.282227;1098.064575;0.782349;
2017.04.26-11.47.42;6;VE_Male;22;278;VE_OneSector;1;1;Right;0;0;0;0;0.770302;0.75114;1100.130981;1100.835327;0.704346;
2017.04.26-11.47.45;6;VE_Male;22;279;VE_OneSector;2;1;Right;0;0;0;0;0.792068;0.728916;1102.8573;1103.605469;0.748169;
2017.04.26-11.47.48;6;VE_Male;22;280;VE_OneSector;2;0;Left;0;0;0;0;0.705536;0.660256;1105.537964;1106.341919;0.803955;
2017.04.26-11.47.51;6;VE_Male;22;281;VE_OneSector;2;1;Right;0;0;0;0;0.880175;0.779101;1108.408569;1109.168091;0.759521;
2017.04.26-11.47.53;6;VE_Male;22;282;VE_OneSector;1;0;Left;0;0;0;0;0.800528;0.658364;1111.144531;1111.948242;0.803711;
2017.04.26-11.47.56;6;VE_Male;22;283;VE_OneSector;1;1;Right;0;0;0;0;0.730146;0.634986;1113.735718;1114.506714;0.770996;
2017.04.26-11.47.59;6;VE_Male;22;284;VE_OneSector;2;1;Right;0;0;0;0;0.786782;0.736894;1116.439209;1117.198853;0.759644;
2017.04.26-11.48.01;6;VE_Male;22;285;VE_OneSector;1;0;Left;0;0;0;0;0.735182;0.66816;1119.02002;1119.856201;0.836182;
2017.04.26-11.48.04;6;VE_Male;22;286;VE_OneSector;2;0;Left;0;0;0;0;0.703742;0.708683;1121.800659;1122.494019;0.693359;
2017.04.26-11.48.07;6;VE_Male;22;287;VE_OneSector;1;0;Left;0;0;0;0;0.731184;0.684481;1124.369507;1125.587646;1.21814;
2017.04.26-11.48.10;6;VE_Male;22;288;VE_OneSector;1;0;Left;0;0;0;0;0.749586;0.665011;1127.51001;1128.257813;0.747803;
2017.04.26-11.48.12;6;VE_Male;22;289;VE_OneSector;1;1;Right;0;0;0;0;0.710022;0.743657;1130.279663;1131.083862;0.804199;
2017.04.26-11.48.15;6;VE_Male;22;290;VE_OneSector;2;1;Right;0;0;0;0;0.856975;0.757653;1133.105957;1133.947388;0.841431;
2017.04.26-11.48.18;6;VE_Male;22;291;VE_OneSector;2;0;Left;0;0;0;0;0.857842;0.703757;1136.12207;1136.859863;0.737793;
2017.04.26-11.48.21;6;VE_Male;22;292;VE_OneSector;1;0;Left;0;0;0;0;0.793826;0.705857;1138.926147;1139.685425;0.759277;
2017.04.26-11.48.24;6;VE_Male;22;293;VE_OneSector;1;1;Right;0;0;0;0;0.718317;0.69075;1141.651855;1142.511963;0.860107;
2017.04.26-11.48.27;6;VE_Male;22;294;VE_OneSector;1;1;Right;0;0;0;0;0.789157;0.628431;1144.466431;1145.280884;0.814453;
2017.04.26-11.48.30;6;VE_Male;22;295;VE_OneSector;1;0;Left;0;0;0;0;0.880969;0.693033;1147.380859;1148.051025;0.670166;
2017.04.26-11.48.32;6;VE_Male;22;296;VE_OneSector;1;0;Left;0;0;0;0;0.883807;0.600739;1150.027344;1150.810669;0.783325;
2017.04.26-11.48.35;6;VE_Male;22;297;VE_OneSector;2;1;Right;1;0;0;0;0.7944;0.680941;1152.842407;1153.647583;0.805176;
2017.04.26-11.48.38;6;VE_Male;22;298;VE_OneSector;1;1;Right;0;0;0;0;0.806223;0.736753;1155.735962;1156.630249;0.894287;
2017.04.26-11.48.41;6;VE_Male;22;299;VE_OneSector;2;0;Left;0;0;0;0;0.70462;0.65132;1158.517822;1159.210449;0.692627;
2017.04.26-11.48.43;6;VE_Male;22;300;VE_OneSector;1;0;Left;0;0;0;0;0.773281;0.796057;1161.299438;1162.015137;0.715698;
2017.04.26-11.48.56;6;VE_Male;22;301;VE_OneSector;1;1;Right;0;0;0;0;0.718299;0.79704;1174.122192;1175.005615;0.883423;
2017.04.26-11.48.59;6;VE_Male;22;302;VE_OneSector;1;0;Left;0;0;0;0;0.816037;0.715915;1176.960449;1177.674683;0.714233;
2017.04.26-11.49.02;6;VE_Male;22;303;VE_OneSector;1;1;Right;0;0;0;0;0.791067;0.601489;1179.552368;1180.400635;0.848267;
2017.04.26-11.49.05;6;VE_Male;22;304;VE_OneSector;1;1;Right;0;0;0;0;0.830491;0.66827;1182.410645;1183.237549;0.826904;
2017.04.26-11.49.08;6;VE_Male;22;305;VE_OneSector;1;0;Left;0;0;0;0;0.84077;0.658181;1185.358276;1186.052612;0.694336;
2017.04.26-11.49.11;6;VE_Male;22;306;VE_OneSector;1;1;Right;0;0;0;0;0.753413;0.641798;1188.877319;1189.597534;0.720215;
2017.04.26-11.49.14;6;VE_Male;22;307;VE_OneSector;1;0;Left;0;0;0;0;0.785769;0.615223;1191.491577;1192.218994;0.727417;
2017.04.26-11.49.17;6;VE_Male;22;308;VE_OneSector;2;1;Right;0;0;0;0;0.863097;0.748936;1194.362793;1195.077393;0.7146;
2017.04.26-11.49.19;6;VE_Male;22;309;VE_OneSector;2;0;Left;0;0;0;0;0.708228;0.644862;1196.941895;1197.67981;0.737915;
2017.04.26-11.49.22;6;VE_Male;22;310;VE_OneSector;1;0;Left;1;0;0;0;0.80513;0.657881;1199.589966;1200.472656;0.88269;
2017.04.26-11.49.25;6;VE_Male;22;311;VE_OneSector;1;0;Left;1;0;0;0;0.74239;0.638032;1202.449341;1203.34314;0.893799;
2017.04.26-11.49.28;6;VE_Male;22;312;VE_OneSector;1;0;Left;0;0;0;0;0.743214;0.749681;1205.431152;1206.225464;0.794312;
2017.04.26-11.49.31;6;VE_Male;22;313;VE_OneSector;1;0;Left;0;0;0;0;0.887848;0.723881;1208.537109;1209.307373;0.770264;
2017.04.26-11.49.34;6;VE_Male;22;314;VE_OneSector;1;1;Right;0;0;0;0;0.834916;0.600201;1211.317627;1212.490601;1.172974;
2017.04.26-11.49.37;6;VE_Male;22;315;VE_OneSector;1;1;Right;0;0;0;0;0.747816;0.714267;1214.501831;1215.328247;0.826416;
2017.04.26-11.49.40;6;VE_Male;22;316;VE_OneSector;2;0;Left;0;0;0;0;0.832444;0.787213;1217.439575;1218.266846;0.827271;
2017.04.26-11.49.43;6;VE_Male;22;317;VE_OneSector;1;0;Left;0;0;0;0;0.792453;0.673354;1220.300049;1220.99231;0.692261;
2017.04.26-11.49.45;6;VE_Male;22;318;VE_OneSector;1;0;Left;0;0;0;0;0.808444;0.62237;1223.036743;1223.72937;0.692627;
2017.04.26-11.49.48;6;VE_Male;22;319;VE_OneSector;1;0;Left;0;0;0;0;0.747108;0.612085;1225.649902;1226.498779;0.848877;
2017.04.26-11.49.51;6;VE_Male;22;320;VE_OneSector;1;0;Left;0;0;0;0;0.806796;0.608301;1228.476685;1229.146118;0.669434;
2017.04.26-11.49.57;6;VE_Male;22;321;VE_OneSector;1;1;Right;1;0;0;0;0.705609;0.707755;1234.828979;1235.610352;0.781372;
2017.04.26-11.50.00;6;VE_Male;22;322;VE_OneSector;1;1;Right;0;0;0;0;0.818357;0.620588;1237.542725;1238.414429;0.871704;
2017.04.26-11.50.03;6;VE_Male;22;323;VE_OneSector;2;1;Right;0;0;0;0;0.768551;0.6485;1240.30127;1241.016846;0.715576;
2017.04.26-11.50.05;6;VE_Male;22;324;VE_OneSector;2;1;Right;0;0;0;0;0.881768;0.61482;1242.937012;1243.59668;0.659668;
2017.04.26-11.50.08;6;VE_Male;22;325;VE_OneSector;2;0;Left;0;0;0;0;0.806565;0.702866;1245.539795;1246.34668;0.806885;
2017.04.26-11.50.11;6;VE_Male;22;326;VE_OneSector;1;1;Right;0;0;0;0;0.709229;0.658632;1248.483765;1249.252808;0.769043;
2017.04.26-11.50.14;6;VE_Male;22;327;VE_OneSector;1;1;Right;0;0;0;0;0.748616;0.714322;1252.131226;1252.839478;0.708252;
2017.04.26-11.50.17;6;VE_Male;22;328;VE_OneSector;1;1;Right;0;0;0;0;0.837297;0.688717;1254.839478;1255.548706;0.709229;
2017.04.26-11.50.20;6;VE_Male;22;329;VE_OneSector;2;0;Left;0;0;0;0;0.795279;0.620801;1257.425537;1258.241699;0.816162;
2017.04.26-11.50.22;6;VE_Male;22;330;VE_OneSector;1;0;Left;0;0;0;0;0.702612;0.792865;1260.230225;1261.113892;0.883667;
2017.04.26-11.50.25;6;VE_Male;22;331;VE_OneSector;1;0;Left;0;0;0;0;0.756996;0.699216;1263.234985;1263.995117;0.760132;
2017.04.26-11.50.28;6;VE_Male;22;332;VE_OneSector;2;1;Right;0;0;0;0;0.842766;0.616993;1266.026611;1266.942627;0.916016;
2017.04.26-11.50.31;6;VE_Male;22;333;VE_OneSector;2;0;Left;0;0;0;0;0.717408;0.735008;1268.963623;1270.141602;1.177979;
2017.04.26-11.50.34;6;VE_Male;22;334;VE_OneSector;2;1;Right;0;0;0;0;0.821995;0.697195;1272.192139;1273.05249;0.860352;
2017.04.26-11.50.37;6;VE_Male;22;335;VE_OneSector;2;0;Left;1;0;0;0;0.82158;0.716666;1275.085815;1276.046021;0.960205;
2017.04.26-11.50.40;6;VE_Male;22;336;VE_OneSector;2;1;Right;0;0;0;0;0.882025;0.716752;1278.157104;1278.850708;0.693604;
2017.04.26-11.50.43;6;VE_Male;22;337;VE_OneSector;1;0;Left;0;0;0;0;0.789322;0.655257;1280.737549;1281.519165;0.781616;
2017.04.26-11.50.46;6;VE_Male;22;338;VE_OneSector;1;0;Left;0;0;0;0;0.717811;0.688156;1283.419312;1284.067017;0.647705;
2017.04.26-11.50.48;6;VE_Male;22;339;VE_OneSector;1;1;Right;0;0;0;0;0.75345;0.728977;1286.032593;1286.769897;0.737305;
2017.04.26-11.50.51;6;VE_Male;22;340;VE_OneSector;1;0;Left;0;0;0;0;0.778365;0.660164;1288.601685;1289.360718;0.759033;
2017.04.26-11.50.54;6;VE_Male;22;341;VE_OneSector;1;0;Left;0;0;0;0;0.823081;0.752648;1291.437866;1292.198242;0.760376;
2017.04.26-11.50.57;6;VE_Male;22;342;VE_OneSector;1;1;Right;0;0;0;0;0.89248;0.749821;1294.431519;1295.269531;0.838013;
2017.04.26-11.50.59;6;VE_Male;22;343;VE_OneSector;2;0;Left;0;0;0;0;0.771902;0.772289;1297.235474;1298.017578;0.782104;
2017.04.26-11.51.02;6;VE_Male;22;344;VE_OneSector;2;1;Right;0;0;0;0;0.819547;0.699484;1300.106079;1300.910645;0.804565;
2017.04.26-11.51.05;6;VE_Male;22;345;VE_OneSector;2;0;Left;0;0;0;0;0.851463;0.784606;1303.01123;1303.792847;0.781616;
2017.04.26-11.51.08;6;VE_Male;22;346;VE_OneSector;2;0;Left;0;0;0;0;0.725336;0.758867;1305.8479;1306.651489;0.803589;
2017.04.26-11.51.11;6;VE_Male;22;347;VE_OneSector;1;0;Left;0;0;0;0;0.729432;0.781567;1308.685913;1309.377808;0.691895;
2017.04.26-11.51.14;6;VE_Male;22;348;VE_OneSector;1;0;Left;0;0;0;0;0.782766;0.69205;1311.433838;1312.125366;0.691528;
2017.04.26-11.51.16;6;VE_Male;22;349;VE_OneSector;2;1;Right;0;0;0;0;0.752925;0.719889;1314.135986;1314.895386;0.759399;
2017.04.26-11.51.19;6;VE_Male;22;350;VE_OneSector;2;1;Right;0;0;0;0;0.897699;0.709531;1316.962402;1317.744873;0.782471;
2017.04.26-11.51.22;6;VE_Male;22;351;VE_OneSector;1;0;Left;0;0;0;0;0.736744;0.615607;1319.576782;1320.447632;0.87085;
2017.04.26-11.51.25;6;VE_Male;22;352;VE_OneSector;2;0;Left;0;0;0;0;0.759682;0.725254;1322.424927;1323.22998;0.805054;
2017.04.26-11.51.28;6;VE_Male;22;353;VE_OneSector;1;1;Right;0;0;0;0;0.876666;0.763585;1325.373779;1326.111328;0.737549;
2017.04.26-11.51.30;6;VE_Male;22;354;VE_OneSector;2;1;Right;0;0;0;0;0.817808;0.738639;1328.143799;1328.992676;0.848877;
2017.04.26-11.51.33;6;VE_Male;22;355;VE_OneSector;1;1;Right;0;0;0;0;0.787735;0.68204;1330.936768;1331.829712;0.892944;
2017.04.26-11.51.36;6;VE_Male;22;356;VE_OneSector;2;1;Right;0;0;0;0;0.781405;0.7416;1333.929688;1334.734741;0.805054;
2017.04.26-11.51.39;6;VE_Male;22;357;VE_OneSector;1;1;Right;0;0;0;0;0.867547;0.782104;1336.83313;1337.637207;0.804077;
2017.04.26-11.51.42;6;VE_Male;22;358;VE_OneSector;1;1;Right;1;0;0;0;0.845891;0.750591;1339.636841;1340.373901;0.737061;
2017.04.26-11.51.45;6;VE_Male;22;359;VE_OneSector;1;1;Right;0;0;0;0;0.784512;0.76231;1342.451172;1343.255371;0.804199;
2017.04.26-11.51.48;6;VE_Male;22;360;VE_OneSector;2;0;Left;0;0;0;0;0.843498;0.763634;1345.377686;1346.137939;0.760254;
